<?xml version="1.0" encoding="utf-8" standalone="no"?>
<!DOCTYPE svg PUBLIC "-//W3C//DTD SVG 1.1//EN"
  "http://www.w3.org/Graphics/SVG/1.1/DTD/svg11.dtd">
<!-- Created with matplotlib (https://matplotlib.org/) -->
<svg height="288pt" version="1.1" viewBox="0 0 576 288" width="576pt" xmlns="http://www.w3.org/2000/svg" xmlns:xlink="http://www.w3.org/1999/xlink">
 <defs>
  <style type="text/css">
*{stroke-linecap:butt;stroke-linejoin:round;}
  </style>
 </defs>
 <g id="figure_1">
  <g id="patch_1">
   <path d="M 0 288 
L 576 288 
L 576 0 
L 0 0 
z
" style="fill:#ffffff;"/>
  </g>
  <g id="axes_1">
   <g id="patch_2">
    <path d="M 315.490909 252 
L 518.4 252 
L 518.4 34.56 
L 315.490909 34.56 
z
" style="fill:#ffffff;"/>
   </g>
   <g id="PathCollection_1">
    <defs>
     <path d="M 0 3.674235 
C 0.974418 3.674235 1.909058 3.287094 2.598076 2.598076 
C 3.287094 1.909058 3.674235 0.974418 3.674235 0 
C 3.674235 -0.974418 3.287094 -1.909058 2.598076 -2.598076 
C 1.909058 -3.287094 0.974418 -3.674235 0 -3.674235 
C -0.974418 -3.674235 -1.909058 -3.287094 -2.598076 -2.598076 
C -3.287094 -1.909058 -3.674235 -0.974418 -3.674235 0 
C -3.674235 0.974418 -3.287094 1.909058 -2.598076 2.598076 
C -1.909058 3.287094 -0.974418 3.674235 0 3.674235 
z
" id="mfcf4b6bd2b" style="stroke:#000000;stroke-opacity:0.75;"/>
    </defs>
    <g clip-path="url(#p479f7a6e24)">
     <use style="fill:#3b4856;fill-opacity:0.75;stroke:#000000;stroke-opacity:0.75;" x="385.579047" xlink:href="#mfcf4b6bd2b" y="124.695742"/>
     <use style="fill:#3b4856;fill-opacity:0.75;stroke:#000000;stroke-opacity:0.75;" x="339.627535" xlink:href="#mfcf4b6bd2b" y="124.69549"/>
     <use style="fill:#3b4856;fill-opacity:0.75;stroke:#000000;stroke-opacity:0.75;" x="338.774846" xlink:href="#mfcf4b6bd2b" y="124.69549"/>
     <use style="fill:#3b4856;fill-opacity:0.75;stroke:#000000;stroke-opacity:0.75;" x="333.485127" xlink:href="#mfcf4b6bd2b" y="124.695492"/>
     <use style="fill:#3b4856;fill-opacity:0.75;stroke:#000000;stroke-opacity:0.75;" x="409.766392" xlink:href="#mfcf4b6bd2b" y="124.713585"/>
     <use style="fill:#3b4856;fill-opacity:0.75;stroke:#000000;stroke-opacity:0.75;" x="370.678837" xlink:href="#mfcf4b6bd2b" y="124.69549"/>
     <use style="fill:#3b4856;fill-opacity:0.75;stroke:#000000;stroke-opacity:0.75;" x="331.546006" xlink:href="#mfcf4b6bd2b" y="124.695493"/>
     <use style="fill:#3b4856;fill-opacity:0.75;stroke:#000000;stroke-opacity:0.75;" x="429.374539" xlink:href="#mfcf4b6bd2b" y="124.906131"/>
     <use style="fill:#3b4856;fill-opacity:0.75;stroke:#000000;stroke-opacity:0.75;" x="340.251641" xlink:href="#mfcf4b6bd2b" y="124.69549"/>
     <use style="fill:#3b4856;fill-opacity:0.75;stroke:#000000;stroke-opacity:0.75;" x="463.670137" xlink:href="#mfcf4b6bd2b" y="129.948506"/>
     <use style="fill:#3b4856;fill-opacity:0.75;stroke:#000000;stroke-opacity:0.75;" x="343.720403" xlink:href="#mfcf4b6bd2b" y="124.695489"/>
     <use style="fill:#3b4856;fill-opacity:0.75;stroke:#000000;stroke-opacity:0.75;" x="477.025888" xlink:href="#mfcf4b6bd2b" y="139.210068"/>
     <use style="fill:#3b4856;fill-opacity:0.75;stroke:#000000;stroke-opacity:0.75;" x="449.624419" xlink:href="#mfcf4b6bd2b" y="126.286854"/>
     <use style="fill:#3b4856;fill-opacity:0.75;stroke:#000000;stroke-opacity:0.75;" x="504.364798" xlink:href="#mfcf4b6bd2b" y="212.877736"/>
     <use style="fill:#3b4856;fill-opacity:0.75;stroke:#000000;stroke-opacity:0.75;" x="442.608807" xlink:href="#mfcf4b6bd2b" y="125.522173"/>
    </g>
   </g>
   <g id="PathCollection_2">
    <defs>
     <path d="M 0 3.674235 
C 0.974418 3.674235 1.909058 3.287094 2.598076 2.598076 
C 3.287094 1.909058 3.674235 0.974418 3.674235 0 
C 3.674235 -0.974418 3.287094 -1.909058 2.598076 -2.598076 
C 1.909058 -3.287094 0.974418 -3.674235 0 -3.674235 
C -0.974418 -3.674235 -1.909058 -3.287094 -2.598076 -2.598076 
C -3.287094 -1.909058 -3.674235 -0.974418 -3.674235 0 
C -3.674235 0.974418 -3.287094 1.909058 -2.598076 2.598076 
C -1.909058 3.287094 -0.974418 3.674235 0 3.674235 
z
" id="m46d4d9c4b4" style="stroke:#000000;stroke-opacity:0.75;"/>
    </defs>
    <g clip-path="url(#p479f7a6e24)">
     <use style="fill:#348fea;fill-opacity:0.75;stroke:#000000;stroke-opacity:0.75;" x="385.579047" xlink:href="#m46d4d9c4b4" y="124.695598"/>
     <use style="fill:#348fea;fill-opacity:0.75;stroke:#000000;stroke-opacity:0.75;" x="339.627535" xlink:href="#m46d4d9c4b4" y="124.695501"/>
     <use style="fill:#348fea;fill-opacity:0.75;stroke:#000000;stroke-opacity:0.75;" x="338.774846" xlink:href="#m46d4d9c4b4" y="124.695501"/>
     <use style="fill:#348fea;fill-opacity:0.75;stroke:#000000;stroke-opacity:0.75;" x="333.485127" xlink:href="#m46d4d9c4b4" y="124.695501"/>
     <use style="fill:#348fea;fill-opacity:0.75;stroke:#000000;stroke-opacity:0.75;" x="409.766392" xlink:href="#m46d4d9c4b4" y="124.694533"/>
     <use style="fill:#348fea;fill-opacity:0.75;stroke:#000000;stroke-opacity:0.75;" x="370.678837" xlink:href="#m46d4d9c4b4" y="124.695531"/>
     <use style="fill:#348fea;fill-opacity:0.75;stroke:#000000;stroke-opacity:0.75;" x="331.546006" xlink:href="#m46d4d9c4b4" y="124.695502"/>
     <use style="fill:#348fea;fill-opacity:0.75;stroke:#000000;stroke-opacity:0.75;" x="429.374539" xlink:href="#m46d4d9c4b4" y="124.680473"/>
     <use style="fill:#348fea;fill-opacity:0.75;stroke:#000000;stroke-opacity:0.75;" x="340.251641" xlink:href="#m46d4d9c4b4" y="124.695501"/>
     <use style="fill:#348fea;fill-opacity:0.75;stroke:#000000;stroke-opacity:0.75;" x="463.670137" xlink:href="#m46d4d9c4b4" y="124.391597"/>
     <use style="fill:#348fea;fill-opacity:0.75;stroke:#000000;stroke-opacity:0.75;" x="343.720403" xlink:href="#m46d4d9c4b4" y="124.695502"/>
     <use style="fill:#348fea;fill-opacity:0.75;stroke:#000000;stroke-opacity:0.75;" x="477.025888" xlink:href="#m46d4d9c4b4" y="123.958755"/>
     <use style="fill:#348fea;fill-opacity:0.75;stroke:#000000;stroke-opacity:0.75;" x="449.624419" xlink:href="#m46d4d9c4b4" y="124.59202"/>
     <use style="fill:#348fea;fill-opacity:0.75;stroke:#000000;stroke-opacity:0.75;" x="504.364798" xlink:href="#m46d4d9c4b4" y="121.422682"/>
     <use style="fill:#348fea;fill-opacity:0.75;stroke:#000000;stroke-opacity:0.75;" x="442.608807" xlink:href="#m46d4d9c4b4" y="124.639193"/>
    </g>
   </g>
   <g id="PathCollection_3">
    <defs>
     <path d="M 0 3.674235 
C 0.974418 3.674235 1.909058 3.287094 2.598076 2.598076 
C 3.287094 1.909058 3.674235 0.974418 3.674235 0 
C 3.674235 -0.974418 3.287094 -1.909058 2.598076 -2.598076 
C 1.909058 -3.287094 0.974418 -3.674235 0 -3.674235 
C -0.974418 -3.674235 -1.909058 -3.287094 -2.598076 -2.598076 
C -3.287094 -1.909058 -3.674235 -0.974418 -3.674235 0 
C -3.674235 0.974418 -3.287094 1.909058 -2.598076 2.598076 
C -1.909058 3.287094 -0.974418 3.674235 0 3.674235 
z
" id="m3a7edce813" style="stroke:#000000;stroke-opacity:0.75;"/>
    </defs>
    <g clip-path="url(#p479f7a6e24)">
     <use style="fill:#4cb9c0;fill-opacity:0.75;stroke:#000000;stroke-opacity:0.75;" x="385.579047" xlink:href="#m3a7edce813" y="124.695632"/>
     <use style="fill:#4cb9c0;fill-opacity:0.75;stroke:#000000;stroke-opacity:0.75;" x="339.627535" xlink:href="#m3a7edce813" y="124.695489"/>
     <use style="fill:#4cb9c0;fill-opacity:0.75;stroke:#000000;stroke-opacity:0.75;" x="338.774846" xlink:href="#m3a7edce813" y="124.695489"/>
     <use style="fill:#4cb9c0;fill-opacity:0.75;stroke:#000000;stroke-opacity:0.75;" x="333.485127" xlink:href="#m3a7edce813" y="124.695489"/>
     <use style="fill:#4cb9c0;fill-opacity:0.75;stroke:#000000;stroke-opacity:0.75;" x="409.766392" xlink:href="#m3a7edce813" y="124.703016"/>
     <use style="fill:#4cb9c0;fill-opacity:0.75;stroke:#000000;stroke-opacity:0.75;" x="370.678837" xlink:href="#m3a7edce813" y="124.695494"/>
     <use style="fill:#4cb9c0;fill-opacity:0.75;stroke:#000000;stroke-opacity:0.75;" x="331.546006" xlink:href="#m3a7edce813" y="124.695489"/>
     <use style="fill:#4cb9c0;fill-opacity:0.75;stroke:#000000;stroke-opacity:0.75;" x="429.374539" xlink:href="#m3a7edce813" y="124.777729"/>
     <use style="fill:#4cb9c0;fill-opacity:0.75;stroke:#000000;stroke-opacity:0.75;" x="340.251641" xlink:href="#m3a7edce813" y="124.695489"/>
     <use style="fill:#4cb9c0;fill-opacity:0.75;stroke:#000000;stroke-opacity:0.75;" x="463.670137" xlink:href="#m3a7edce813" y="126.710169"/>
     <use style="fill:#4cb9c0;fill-opacity:0.75;stroke:#000000;stroke-opacity:0.75;" x="343.720403" xlink:href="#m3a7edce813" y="124.695488"/>
     <use style="fill:#4cb9c0;fill-opacity:0.75;stroke:#000000;stroke-opacity:0.75;" x="477.025888" xlink:href="#m3a7edce813" y="130.284916"/>
     <use style="fill:#4cb9c0;fill-opacity:0.75;stroke:#000000;stroke-opacity:0.75;" x="449.624419" xlink:href="#m3a7edce813" y="125.305949"/>
     <use style="fill:#4cb9c0;fill-opacity:0.75;stroke:#000000;stroke-opacity:0.75;" x="504.364798" xlink:href="#m3a7edce813" y="159.123756"/>
     <use style="fill:#4cb9c0;fill-opacity:0.75;stroke:#000000;stroke-opacity:0.75;" x="442.608807" xlink:href="#m3a7edce813" y="125.013567"/>
    </g>
   </g>
   <g id="PathCollection_4">
    <defs>
     <path d="M 0 3.674235 
C 0.974418 3.674235 1.909058 3.287094 2.598076 2.598076 
C 3.287094 1.909058 3.674235 0.974418 3.674235 0 
C 3.674235 -0.974418 3.287094 -1.909058 2.598076 -2.598076 
C 1.909058 -3.287094 0.974418 -3.674235 0 -3.674235 
C -0.974418 -3.674235 -1.909058 -3.287094 -2.598076 -2.598076 
C -3.287094 -1.909058 -3.674235 -0.974418 -3.674235 0 
C -3.674235 0.974418 -3.287094 1.909058 -2.598076 2.598076 
C -1.909058 3.287094 -0.974418 3.674235 0 3.674235 
z
" id="m743ba7d9d7" style="stroke:#000000;stroke-opacity:0.75;"/>
    </defs>
    <g clip-path="url(#p479f7a6e24)">
     <use style="fill:#97c804;fill-opacity:0.75;stroke:#000000;stroke-opacity:0.75;" x="385.579047" xlink:href="#m743ba7d9d7" y="124.69509"/>
     <use style="fill:#97c804;fill-opacity:0.75;stroke:#000000;stroke-opacity:0.75;" x="339.627535" xlink:href="#m743ba7d9d7" y="124.695485"/>
     <use style="fill:#97c804;fill-opacity:0.75;stroke:#000000;stroke-opacity:0.75;" x="338.774846" xlink:href="#m743ba7d9d7" y="124.695485"/>
     <use style="fill:#97c804;fill-opacity:0.75;stroke:#000000;stroke-opacity:0.75;" x="333.485127" xlink:href="#m743ba7d9d7" y="124.695485"/>
     <use style="fill:#97c804;fill-opacity:0.75;stroke:#000000;stroke-opacity:0.75;" x="409.766392" xlink:href="#m743ba7d9d7" y="124.680276"/>
     <use style="fill:#97c804;fill-opacity:0.75;stroke:#000000;stroke-opacity:0.75;" x="370.678837" xlink:href="#m743ba7d9d7" y="124.695444"/>
     <use style="fill:#97c804;fill-opacity:0.75;stroke:#000000;stroke-opacity:0.75;" x="331.546006" xlink:href="#m743ba7d9d7" y="124.695486"/>
     <use style="fill:#97c804;fill-opacity:0.75;stroke:#000000;stroke-opacity:0.75;" x="429.374539" xlink:href="#m743ba7d9d7" y="124.537951"/>
     <use style="fill:#97c804;fill-opacity:0.75;stroke:#000000;stroke-opacity:0.75;" x="340.251641" xlink:href="#m743ba7d9d7" y="124.695485"/>
     <use style="fill:#97c804;fill-opacity:0.75;stroke:#000000;stroke-opacity:0.75;" x="463.670137" xlink:href="#m743ba7d9d7" y="121.019346"/>
     <use style="fill:#97c804;fill-opacity:0.75;stroke:#000000;stroke-opacity:0.75;" x="343.720403" xlink:href="#m743ba7d9d7" y="124.695484"/>
     <use style="fill:#97c804;fill-opacity:0.75;stroke:#000000;stroke-opacity:0.75;" x="477.025888" xlink:href="#m743ba7d9d7" y="114.644463"/>
     <use style="fill:#97c804;fill-opacity:0.75;stroke:#000000;stroke-opacity:0.75;" x="449.624419" xlink:href="#m743ba7d9d7" y="123.562106"/>
     <use style="fill:#97c804;fill-opacity:0.75;stroke:#000000;stroke-opacity:0.75;" x="504.364798" xlink:href="#m743ba7d9d7" y="64.349836"/>
     <use style="fill:#97c804;fill-opacity:0.75;stroke:#000000;stroke-opacity:0.75;" x="442.608807" xlink:href="#m743ba7d9d7" y="124.09918"/>
    </g>
   </g>
   <g id="PathCollection_5">
    <defs>
     <path d="M 0 3.674235 
C 0.974418 3.674235 1.909058 3.287094 2.598076 2.598076 
C 3.287094 1.909058 3.674235 0.974418 3.674235 0 
C 3.674235 -0.974418 3.287094 -1.909058 2.598076 -2.598076 
C 1.909058 -3.287094 0.974418 -3.674235 0 -3.674235 
C -0.974418 -3.674235 -1.909058 -3.287094 -2.598076 -2.598076 
C -3.287094 -1.909058 -3.674235 -0.974418 -3.674235 0 
C -3.674235 0.974418 -3.287094 1.909058 -2.598076 2.598076 
C -1.909058 3.287094 -0.974418 3.674235 0 3.674235 
z
" id="mc810aa9f1b" style="stroke:#000000;stroke-opacity:0.75;"/>
    </defs>
    <g clip-path="url(#p479f7a6e24)">
     <use style="fill:#ffc100;fill-opacity:0.75;stroke:#000000;stroke-opacity:0.75;" x="385.579047" xlink:href="#mc810aa9f1b" y="124.695859"/>
     <use style="fill:#ffc100;fill-opacity:0.75;stroke:#000000;stroke-opacity:0.75;" x="339.627535" xlink:href="#mc810aa9f1b" y="124.695482"/>
     <use style="fill:#ffc100;fill-opacity:0.75;stroke:#000000;stroke-opacity:0.75;" x="338.774846" xlink:href="#mc810aa9f1b" y="124.695482"/>
     <use style="fill:#ffc100;fill-opacity:0.75;stroke:#000000;stroke-opacity:0.75;" x="333.485127" xlink:href="#mc810aa9f1b" y="124.695482"/>
     <use style="fill:#ffc100;fill-opacity:0.75;stroke:#000000;stroke-opacity:0.75;" x="409.766392" xlink:href="#mc810aa9f1b" y="124.715331"/>
     <use style="fill:#ffc100;fill-opacity:0.75;stroke:#000000;stroke-opacity:0.75;" x="370.678837" xlink:href="#mc810aa9f1b" y="124.695488"/>
     <use style="fill:#ffc100;fill-opacity:0.75;stroke:#000000;stroke-opacity:0.75;" x="331.546006" xlink:href="#mc810aa9f1b" y="124.695482"/>
     <use style="fill:#ffc100;fill-opacity:0.75;stroke:#000000;stroke-opacity:0.75;" x="429.374539" xlink:href="#mc810aa9f1b" y="124.905481"/>
     <use style="fill:#ffc100;fill-opacity:0.75;stroke:#000000;stroke-opacity:0.75;" x="340.251641" xlink:href="#mc810aa9f1b" y="124.695482"/>
     <use style="fill:#ffc100;fill-opacity:0.75;stroke:#000000;stroke-opacity:0.75;" x="463.670137" xlink:href="#mc810aa9f1b" y="129.628146"/>
     <use style="fill:#ffc100;fill-opacity:0.75;stroke:#000000;stroke-opacity:0.75;" x="343.720403" xlink:href="#mc810aa9f1b" y="124.695483"/>
     <use style="fill:#ffc100;fill-opacity:0.75;stroke:#000000;stroke-opacity:0.75;" x="477.025888" xlink:href="#mc810aa9f1b" y="138.203581"/>
     <use style="fill:#ffc100;fill-opacity:0.75;stroke:#000000;stroke-opacity:0.75;" x="449.624419" xlink:href="#mc810aa9f1b" y="126.213456"/>
     <use style="fill:#ffc100;fill-opacity:0.75;stroke:#000000;stroke-opacity:0.75;" x="504.364798" xlink:href="#mc810aa9f1b" y="206.058376"/>
     <use style="fill:#ffc100;fill-opacity:0.75;stroke:#000000;stroke-opacity:0.75;" x="442.608807" xlink:href="#mc810aa9f1b" y="125.493219"/>
    </g>
   </g>
   <g id="PathCollection_6">
    <defs>
     <path d="M 0 3.674235 
C 0.974418 3.674235 1.909058 3.287094 2.598076 2.598076 
C 3.287094 1.909058 3.674235 0.974418 3.674235 0 
C 3.674235 -0.974418 3.287094 -1.909058 2.598076 -2.598076 
C 1.909058 -3.287094 0.974418 -3.674235 0 -3.674235 
C -0.974418 -3.674235 -1.909058 -3.287094 -2.598076 -2.598076 
C -3.287094 -1.909058 -3.674235 -0.974418 -3.674235 0 
C -3.674235 0.974418 -3.287094 1.909058 -2.598076 2.598076 
C -1.909058 3.287094 -0.974418 3.674235 0 3.674235 
z
" id="mb334654560" style="stroke:#000000;stroke-opacity:0.75;"/>
    </defs>
    <g clip-path="url(#p479f7a6e24)">
     <use style="fill:#e06a27;fill-opacity:0.75;stroke:#000000;stroke-opacity:0.75;" x="385.579047" xlink:href="#mb334654560" y="124.69573"/>
     <use style="fill:#e06a27;fill-opacity:0.75;stroke:#000000;stroke-opacity:0.75;" x="339.627535" xlink:href="#mb334654560" y="124.695493"/>
     <use style="fill:#e06a27;fill-opacity:0.75;stroke:#000000;stroke-opacity:0.75;" x="338.774846" xlink:href="#mb334654560" y="124.695493"/>
     <use style="fill:#e06a27;fill-opacity:0.75;stroke:#000000;stroke-opacity:0.75;" x="333.485127" xlink:href="#mb334654560" y="124.695493"/>
     <use style="fill:#e06a27;fill-opacity:0.75;stroke:#000000;stroke-opacity:0.75;" x="409.766392" xlink:href="#mb334654560" y="124.703666"/>
     <use style="fill:#e06a27;fill-opacity:0.75;stroke:#000000;stroke-opacity:0.75;" x="370.678837" xlink:href="#mb334654560" y="124.695513"/>
     <use style="fill:#e06a27;fill-opacity:0.75;stroke:#000000;stroke-opacity:0.75;" x="331.546006" xlink:href="#mb334654560" y="124.695493"/>
     <use style="fill:#e06a27;fill-opacity:0.75;stroke:#000000;stroke-opacity:0.75;" x="429.374539" xlink:href="#mb334654560" y="124.769357"/>
     <use style="fill:#e06a27;fill-opacity:0.75;stroke:#000000;stroke-opacity:0.75;" x="340.251641" xlink:href="#mb334654560" y="124.695493"/>
     <use style="fill:#e06a27;fill-opacity:0.75;stroke:#000000;stroke-opacity:0.75;" x="463.670137" xlink:href="#mb334654560" y="126.082939"/>
     <use style="fill:#e06a27;fill-opacity:0.75;stroke:#000000;stroke-opacity:0.75;" x="343.720403" xlink:href="#mb334654560" y="124.695494"/>
     <use style="fill:#e06a27;fill-opacity:0.75;stroke:#000000;stroke-opacity:0.75;" x="477.025888" xlink:href="#mb334654560" y="128.218196"/>
     <use style="fill:#e06a27;fill-opacity:0.75;stroke:#000000;stroke-opacity:0.75;" x="449.624419" xlink:href="#mb334654560" y="125.160842"/>
     <use style="fill:#e06a27;fill-opacity:0.75;stroke:#000000;stroke-opacity:0.75;" x="504.364798" xlink:href="#mb334654560" y="143.177237"/>
     <use style="fill:#e06a27;fill-opacity:0.75;stroke:#000000;stroke-opacity:0.75;" x="442.608807" xlink:href="#mb334654560" y="124.95148"/>
    </g>
   </g>
   <g id="matplotlib.axis_1">
    <g id="xtick_1">
     <g id="line2d_1">
      <defs>
       <path d="M 0 0 
L 0 3.5 
" id="m16a8d76c24" style="stroke:#000000;stroke-width:0.8;"/>
      </defs>
      <g>
       <use style="stroke:#000000;stroke-width:0.8;" x="337.95143" xlink:href="#m16a8d76c24" y="252"/>
      </g>
     </g>
     <g id="text_1">
      <!-- 0 -->
      <defs>
       <path d="M 31.78125 66.40625 
Q 24.171875 66.40625 20.328125 58.90625 
Q 16.5 51.421875 16.5 36.375 
Q 16.5 21.390625 20.328125 13.890625 
Q 24.171875 6.390625 31.78125 6.390625 
Q 39.453125 6.390625 43.28125 13.890625 
Q 47.125 21.390625 47.125 36.375 
Q 47.125 51.421875 43.28125 58.90625 
Q 39.453125 66.40625 31.78125 66.40625 
z
M 31.78125 74.21875 
Q 44.046875 74.21875 50.515625 64.515625 
Q 56.984375 54.828125 56.984375 36.375 
Q 56.984375 17.96875 50.515625 8.265625 
Q 44.046875 -1.421875 31.78125 -1.421875 
Q 19.53125 -1.421875 13.0625 8.265625 
Q 6.59375 17.96875 6.59375 36.375 
Q 6.59375 54.828125 13.0625 64.515625 
Q 19.53125 74.21875 31.78125 74.21875 
z
" id="DejaVuSans-48"/>
      </defs>
      <g transform="translate(334.77018 266.598437)scale(0.1 -0.1)">
       <use xlink:href="#DejaVuSans-48"/>
      </g>
     </g>
    </g>
    <g id="xtick_2">
     <g id="line2d_2">
      <g>
       <use style="stroke:#000000;stroke-width:0.8;" x="372.11121" xlink:href="#m16a8d76c24" y="252"/>
      </g>
     </g>
     <g id="text_2">
      <!-- 1 -->
      <defs>
       <path d="M 12.40625 8.296875 
L 28.515625 8.296875 
L 28.515625 63.921875 
L 10.984375 60.40625 
L 10.984375 69.390625 
L 28.421875 72.90625 
L 38.28125 72.90625 
L 38.28125 8.296875 
L 54.390625 8.296875 
L 54.390625 0 
L 12.40625 0 
z
" id="DejaVuSans-49"/>
      </defs>
      <g transform="translate(368.92996 266.598437)scale(0.1 -0.1)">
       <use xlink:href="#DejaVuSans-49"/>
      </g>
     </g>
    </g>
    <g id="xtick_3">
     <g id="line2d_3">
      <g>
       <use style="stroke:#000000;stroke-width:0.8;" x="406.27099" xlink:href="#m16a8d76c24" y="252"/>
      </g>
     </g>
     <g id="text_3">
      <!-- 2 -->
      <defs>
       <path d="M 19.1875 8.296875 
L 53.609375 8.296875 
L 53.609375 0 
L 7.328125 0 
L 7.328125 8.296875 
Q 12.9375 14.109375 22.625 23.890625 
Q 32.328125 33.6875 34.8125 36.53125 
Q 39.546875 41.84375 41.421875 45.53125 
Q 43.3125 49.21875 43.3125 52.78125 
Q 43.3125 58.59375 39.234375 62.25 
Q 35.15625 65.921875 28.609375 65.921875 
Q 23.96875 65.921875 18.8125 64.3125 
Q 13.671875 62.703125 7.8125 59.421875 
L 7.8125 69.390625 
Q 13.765625 71.78125 18.9375 73 
Q 24.125 74.21875 28.421875 74.21875 
Q 39.75 74.21875 46.484375 68.546875 
Q 53.21875 62.890625 53.21875 53.421875 
Q 53.21875 48.921875 51.53125 44.890625 
Q 49.859375 40.875 45.40625 35.40625 
Q 44.1875 33.984375 37.640625 27.21875 
Q 31.109375 20.453125 19.1875 8.296875 
z
" id="DejaVuSans-50"/>
      </defs>
      <g transform="translate(403.08974 266.598437)scale(0.1 -0.1)">
       <use xlink:href="#DejaVuSans-50"/>
      </g>
     </g>
    </g>
    <g id="xtick_4">
     <g id="line2d_4">
      <g>
       <use style="stroke:#000000;stroke-width:0.8;" x="440.430769" xlink:href="#m16a8d76c24" y="252"/>
      </g>
     </g>
     <g id="text_4">
      <!-- 3 -->
      <defs>
       <path d="M 40.578125 39.3125 
Q 47.65625 37.796875 51.625 33 
Q 55.609375 28.21875 55.609375 21.1875 
Q 55.609375 10.40625 48.1875 4.484375 
Q 40.765625 -1.421875 27.09375 -1.421875 
Q 22.515625 -1.421875 17.65625 -0.515625 
Q 12.796875 0.390625 7.625 2.203125 
L 7.625 11.71875 
Q 11.71875 9.328125 16.59375 8.109375 
Q 21.484375 6.890625 26.8125 6.890625 
Q 36.078125 6.890625 40.9375 10.546875 
Q 45.796875 14.203125 45.796875 21.1875 
Q 45.796875 27.640625 41.28125 31.265625 
Q 36.765625 34.90625 28.71875 34.90625 
L 20.21875 34.90625 
L 20.21875 43.015625 
L 29.109375 43.015625 
Q 36.375 43.015625 40.234375 45.921875 
Q 44.09375 48.828125 44.09375 54.296875 
Q 44.09375 59.90625 40.109375 62.90625 
Q 36.140625 65.921875 28.71875 65.921875 
Q 24.65625 65.921875 20.015625 65.03125 
Q 15.375 64.15625 9.8125 62.3125 
L 9.8125 71.09375 
Q 15.4375 72.65625 20.34375 73.4375 
Q 25.25 74.21875 29.59375 74.21875 
Q 40.828125 74.21875 47.359375 69.109375 
Q 53.90625 64.015625 53.90625 55.328125 
Q 53.90625 49.265625 50.4375 45.09375 
Q 46.96875 40.921875 40.578125 39.3125 
z
" id="DejaVuSans-51"/>
      </defs>
      <g transform="translate(437.249519 266.598437)scale(0.1 -0.1)">
       <use xlink:href="#DejaVuSans-51"/>
      </g>
     </g>
    </g>
    <g id="xtick_5">
     <g id="line2d_5">
      <g>
       <use style="stroke:#000000;stroke-width:0.8;" x="474.590549" xlink:href="#m16a8d76c24" y="252"/>
      </g>
     </g>
     <g id="text_5">
      <!-- 4 -->
      <defs>
       <path d="M 37.796875 64.3125 
L 12.890625 25.390625 
L 37.796875 25.390625 
z
M 35.203125 72.90625 
L 47.609375 72.90625 
L 47.609375 25.390625 
L 58.015625 25.390625 
L 58.015625 17.1875 
L 47.609375 17.1875 
L 47.609375 0 
L 37.796875 0 
L 37.796875 17.1875 
L 4.890625 17.1875 
L 4.890625 26.703125 
z
" id="DejaVuSans-52"/>
      </defs>
      <g transform="translate(471.409299 266.598437)scale(0.1 -0.1)">
       <use xlink:href="#DejaVuSans-52"/>
      </g>
     </g>
    </g>
    <g id="xtick_6">
     <g id="line2d_6">
      <g>
       <use style="stroke:#000000;stroke-width:0.8;" x="508.750328" xlink:href="#m16a8d76c24" y="252"/>
      </g>
     </g>
     <g id="text_6">
      <!-- 5 -->
      <defs>
       <path d="M 10.796875 72.90625 
L 49.515625 72.90625 
L 49.515625 64.59375 
L 19.828125 64.59375 
L 19.828125 46.734375 
Q 21.96875 47.46875 24.109375 47.828125 
Q 26.265625 48.1875 28.421875 48.1875 
Q 40.625 48.1875 47.75 41.5 
Q 54.890625 34.8125 54.890625 23.390625 
Q 54.890625 11.625 47.5625 5.09375 
Q 40.234375 -1.421875 26.90625 -1.421875 
Q 22.3125 -1.421875 17.546875 -0.640625 
Q 12.796875 0.140625 7.71875 1.703125 
L 7.71875 11.625 
Q 12.109375 9.234375 16.796875 8.0625 
Q 21.484375 6.890625 26.703125 6.890625 
Q 35.15625 6.890625 40.078125 11.328125 
Q 45.015625 15.765625 45.015625 23.390625 
Q 45.015625 31 40.078125 35.4375 
Q 35.15625 39.890625 26.703125 39.890625 
Q 22.75 39.890625 18.8125 39.015625 
Q 14.890625 38.140625 10.796875 36.28125 
z
" id="DejaVuSans-53"/>
      </defs>
      <g transform="translate(505.569078 266.598437)scale(0.1 -0.1)">
       <use xlink:href="#DejaVuSans-53"/>
      </g>
     </g>
    </g>
   </g>
   <g id="matplotlib.axis_2">
    <g id="ytick_1">
     <g id="line2d_7">
      <defs>
       <path d="M 0 0 
L -3.5 0 
" id="m90557cdd98" style="stroke:#000000;stroke-width:0.8;"/>
      </defs>
      <g>
       <use style="stroke:#000000;stroke-width:0.8;" x="315.490909" xlink:href="#m90557cdd98" y="248.565026"/>
      </g>
     </g>
     <g id="text_7">
      <!-- −1.5 -->
      <defs>
       <path d="M 10.59375 35.5 
L 73.1875 35.5 
L 73.1875 27.203125 
L 10.59375 27.203125 
z
" id="DejaVuSans-8722"/>
       <path d="M 10.6875 12.40625 
L 21 12.40625 
L 21 0 
L 10.6875 0 
z
" id="DejaVuSans-46"/>
      </defs>
      <g transform="translate(284.208097 252.364245)scale(0.1 -0.1)">
       <use xlink:href="#DejaVuSans-8722"/>
       <use x="83.789062" xlink:href="#DejaVuSans-49"/>
       <use x="147.412109" xlink:href="#DejaVuSans-46"/>
       <use x="179.199219" xlink:href="#DejaVuSans-53"/>
      </g>
     </g>
    </g>
    <g id="ytick_2">
     <g id="line2d_8">
      <g>
       <use style="stroke:#000000;stroke-width:0.8;" x="315.490909" xlink:href="#m90557cdd98" y="207.275184"/>
      </g>
     </g>
     <g id="text_8">
      <!-- −1.0 -->
      <g transform="translate(284.208097 211.074402)scale(0.1 -0.1)">
       <use xlink:href="#DejaVuSans-8722"/>
       <use x="83.789062" xlink:href="#DejaVuSans-49"/>
       <use x="147.412109" xlink:href="#DejaVuSans-46"/>
       <use x="179.199219" xlink:href="#DejaVuSans-48"/>
      </g>
     </g>
    </g>
    <g id="ytick_3">
     <g id="line2d_9">
      <g>
       <use style="stroke:#000000;stroke-width:0.8;" x="315.490909" xlink:href="#m90557cdd98" y="165.985341"/>
      </g>
     </g>
     <g id="text_9">
      <!-- −0.5 -->
      <g transform="translate(284.208097 169.78456)scale(0.1 -0.1)">
       <use xlink:href="#DejaVuSans-8722"/>
       <use x="83.789062" xlink:href="#DejaVuSans-48"/>
       <use x="147.412109" xlink:href="#DejaVuSans-46"/>
       <use x="179.199219" xlink:href="#DejaVuSans-53"/>
      </g>
     </g>
    </g>
    <g id="ytick_4">
     <g id="line2d_10">
      <g>
       <use style="stroke:#000000;stroke-width:0.8;" x="315.490909" xlink:href="#m90557cdd98" y="124.695499"/>
      </g>
     </g>
     <g id="text_10">
      <!-- 0.0 -->
      <g transform="translate(292.587784 128.494718)scale(0.1 -0.1)">
       <use xlink:href="#DejaVuSans-48"/>
       <use x="63.623047" xlink:href="#DejaVuSans-46"/>
       <use x="95.410156" xlink:href="#DejaVuSans-48"/>
      </g>
     </g>
    </g>
    <g id="ytick_5">
     <g id="line2d_11">
      <g>
       <use style="stroke:#000000;stroke-width:0.8;" x="315.490909" xlink:href="#m90557cdd98" y="83.405657"/>
      </g>
     </g>
     <g id="text_11">
      <!-- 0.5 -->
      <g transform="translate(292.587784 87.204876)scale(0.1 -0.1)">
       <use xlink:href="#DejaVuSans-48"/>
       <use x="63.623047" xlink:href="#DejaVuSans-46"/>
       <use x="95.410156" xlink:href="#DejaVuSans-53"/>
      </g>
     </g>
    </g>
    <g id="ytick_6">
     <g id="line2d_12">
      <g>
       <use style="stroke:#000000;stroke-width:0.8;" x="315.490909" xlink:href="#m90557cdd98" y="42.115815"/>
      </g>
     </g>
     <g id="text_12">
      <!-- 1.0 -->
      <g transform="translate(292.587784 45.915033)scale(0.1 -0.1)">
       <use xlink:href="#DejaVuSans-49"/>
       <use x="63.623047" xlink:href="#DejaVuSans-46"/>
       <use x="95.410156" xlink:href="#DejaVuSans-48"/>
      </g>
     </g>
    </g>
    <g id="text_13">
     <!-- 1e7 -->
     <defs>
      <path d="M 56.203125 29.59375 
L 56.203125 25.203125 
L 14.890625 25.203125 
Q 15.484375 15.921875 20.484375 11.0625 
Q 25.484375 6.203125 34.421875 6.203125 
Q 39.59375 6.203125 44.453125 7.46875 
Q 49.3125 8.734375 54.109375 11.28125 
L 54.109375 2.78125 
Q 49.265625 0.734375 44.1875 -0.34375 
Q 39.109375 -1.421875 33.890625 -1.421875 
Q 20.796875 -1.421875 13.15625 6.1875 
Q 5.515625 13.8125 5.515625 26.8125 
Q 5.515625 40.234375 12.765625 48.109375 
Q 20.015625 56 32.328125 56 
Q 43.359375 56 49.78125 48.890625 
Q 56.203125 41.796875 56.203125 29.59375 
z
M 47.21875 32.234375 
Q 47.125 39.59375 43.09375 43.984375 
Q 39.0625 48.390625 32.421875 48.390625 
Q 24.90625 48.390625 20.390625 44.140625 
Q 15.875 39.890625 15.1875 32.171875 
z
" id="DejaVuSans-101"/>
      <path d="M 8.203125 72.90625 
L 55.078125 72.90625 
L 55.078125 68.703125 
L 28.609375 0 
L 18.3125 0 
L 43.21875 64.59375 
L 8.203125 64.59375 
z
" id="DejaVuSans-55"/>
     </defs>
     <g transform="translate(315.490909 31.56)scale(0.1 -0.1)">
      <use xlink:href="#DejaVuSans-49"/>
      <use x="63.623047" xlink:href="#DejaVuSans-101"/>
      <use x="125.146484" xlink:href="#DejaVuSans-55"/>
     </g>
    </g>
   </g>
   <g id="line2d_13">
    <path clip-path="url(#p479f7a6e24)" d="M 324.71405 124.695496 
L 331.546006 124.695493 
L 338.377961 124.69549 
L 345.209917 124.695488 
L 352.041873 124.695487 
L 358.873829 124.695486 
L 365.705785 124.695487 
L 372.537741 124.695494 
L 379.369697 124.695543 
L 386.201653 124.69578 
L 393.033609 124.696664 
L 399.865565 124.699439 
L 406.697521 124.707066 
L 413.529477 124.725961 
L 420.361433 124.768995 
L 427.193388 124.860416 
L 434.025344 125.043573 
L 440.8573 125.392598 
L 447.689256 126.029528 
L 454.521212 127.148724 
L 461.353168 129.050901 
L 468.185124 132.189587 
L 475.01708 137.233395 
L 481.849036 145.148162 
L 488.680992 157.303742 
L 495.512948 175.611027 
L 502.344904 202.695725 
L 509.17686 242.116364 
" style="fill:none;stroke:#3b4856;stroke-linecap:square;stroke-width:1.5;"/>
   </g>
   <g id="line2d_14">
    <path clip-path="url(#p479f7a6e24)" d="M 324.71405 124.695503 
L 331.546006 124.695502 
L 338.377961 124.695501 
L 345.209917 124.695502 
L 352.041873 124.695504 
L 358.873829 124.69551 
L 365.705785 124.695519 
L 372.537741 124.695537 
L 379.369697 124.695566 
L 386.201653 124.6956 
L 393.033609 124.695608 
L 399.865565 124.695487 
L 406.697521 124.694995 
L 413.529477 124.693627 
L 420.361433 124.69043 
L 427.193388 124.683746 
L 434.025344 124.67086 
L 440.8573 124.647552 
L 447.689256 124.607548 
L 454.521212 124.541883 
L 461.353168 124.438187 
L 468.185124 124.27995 
L 475.01708 124.045799 
L 481.849036 123.708907 
L 488.680992 123.236613 
L 495.512948 122.590436 
L 502.344904 121.726651 
L 509.17686 120.597692 
" style="fill:none;stroke:#348fea;stroke-linecap:square;stroke-width:1.5;"/>
   </g>
   <g id="line2d_15">
    <path clip-path="url(#p479f7a6e24)" d="M 324.71405 124.695488 
L 331.546006 124.695489 
L 338.377961 124.695489 
L 345.209917 124.695488 
L 352.041873 124.695488 
L 358.873829 124.695488 
L 365.705785 124.69549 
L 372.537741 124.695497 
L 379.369697 124.695529 
L 386.201653 124.695651 
L 393.033609 124.696059 
L 399.865565 124.697254 
L 406.697521 124.700392 
L 413.529477 124.707936 
L 420.361433 124.724783 
L 427.193388 124.760137 
L 434.025344 124.830467 
L 440.8573 124.964026 
L 447.689256 125.207538 
L 454.521212 125.635819 
L 461.353168 126.365308 
L 468.185124 127.57267 
L 475.01708 129.519936 
L 481.849036 132.587885 
L 488.680992 137.319738 
L 495.512948 144.477548 
L 502.344904 155.11414 
L 509.17686 170.66382 
" style="fill:none;stroke:#4cb9c0;stroke-linecap:square;stroke-width:1.5;"/>
   </g>
   <g id="line2d_16">
    <path clip-path="url(#p479f7a6e24)" d="M 324.71405 124.695485 
L 331.546006 124.695486 
L 338.377961 124.695485 
L 345.209917 124.695484 
L 352.041873 124.69548 
L 358.873829 124.695474 
L 365.705785 124.695462 
L 372.537741 124.695432 
L 379.369697 124.695341 
L 386.201653 124.695048 
L 393.033609 124.694161 
L 399.865565 124.691699 
L 406.697521 124.685436 
L 413.529477 124.670692 
L 420.361433 124.638278 
L 427.193388 124.571128 
L 434.025344 124.439042 
L 440.8573 124.190759 
L 447.689256 123.742348 
L 454.521212 122.960671 
L 461.353168 121.640354 
L 468.185124 119.472357 
L 475.01708 116.00185 
L 481.849036 110.572653 
L 488.680992 102.254999 
L 495.512948 89.752822 
L 502.344904 71.286167 
L 509.17686 44.443636 
" style="fill:none;stroke:#97c804;stroke-linecap:square;stroke-width:1.5;"/>
   </g>
   <g id="line2d_17">
    <path clip-path="url(#p479f7a6e24)" d="M 324.71405 124.695482 
L 331.546006 124.695482 
L 338.377961 124.695482 
L 345.209917 124.695483 
L 352.041873 124.695483 
L 358.873829 124.695482 
L 365.705785 124.695482 
L 372.537741 124.695494 
L 379.369697 124.695576 
L 386.201653 124.695909 
L 393.033609 124.697019 
L 399.865565 124.700216 
L 406.697521 124.708483 
L 413.529477 124.728085 
L 420.361433 124.771333 
L 427.193388 124.861096 
L 434.025344 125.037875 
L 440.8573 125.370478 
L 447.689256 125.97168 
L 454.521212 127.020567 
L 461.353168 128.793706 
L 468.185124 131.707734 
L 475.01708 136.376535 
L 481.849036 143.686738 
L 488.680992 154.896004 
L 495.512948 171.759318 
L 502.344904 196.689333 
L 509.17686 232.957797 
" style="fill:none;stroke:#ffc100;stroke-linecap:square;stroke-width:1.5;"/>
   </g>
   <g id="line2d_18">
    <path clip-path="url(#p479f7a6e24)" d="M 324.71405 124.695494 
L 331.546006 124.695493 
L 338.377961 124.695493 
L 345.209917 124.695494 
L 352.041873 124.695495 
L 358.873829 124.695497 
L 365.705785 124.695503 
L 372.537741 124.69552 
L 379.369697 124.695576 
L 386.201653 124.695756 
L 393.033609 124.696279 
L 399.865565 124.697663 
L 406.697521 124.701007 
L 413.529477 124.708473 
L 420.361433 124.724045 
L 427.193388 124.754681 
L 434.025344 124.811996 
L 440.8573 124.914645 
L 447.689256 125.091611 
L 454.521212 125.386649 
L 461.353168 125.864158 
L 468.185124 126.61683 
L 475.01708 127.775461 
L 481.849036 129.521348 
L 488.680992 132.101803 
L 495.512948 135.849324 
L 502.344904 141.205084 
L 509.17686 148.747434 
" style="fill:none;stroke:#e06a27;stroke-linecap:square;stroke-width:1.5;"/>
   </g>
   <g id="patch_3">
    <path d="M 315.490909 252 
L 315.490909 34.56 
" style="fill:none;stroke:#000000;stroke-linecap:square;stroke-linejoin:miter;stroke-width:0.8;"/>
   </g>
   <g id="patch_4">
    <path d="M 518.4 252 
L 518.4 34.56 
" style="fill:none;stroke:#000000;stroke-linecap:square;stroke-linejoin:miter;stroke-width:0.8;"/>
   </g>
   <g id="patch_5">
    <path d="M 315.490909 252 
L 518.4 252 
" style="fill:none;stroke:#000000;stroke-linecap:square;stroke-linejoin:miter;stroke-width:0.8;"/>
   </g>
   <g id="patch_6">
    <path d="M 315.490909 34.56 
L 518.4 34.56 
" style="fill:none;stroke:#000000;stroke-linecap:square;stroke-linejoin:miter;stroke-width:0.8;"/>
   </g>
   <g id="text_14">
    <!-- 10th degree -->
    <defs>
     <path d="M 18.3125 70.21875 
L 18.3125 54.6875 
L 36.8125 54.6875 
L 36.8125 47.703125 
L 18.3125 47.703125 
L 18.3125 18.015625 
Q 18.3125 11.328125 20.140625 9.421875 
Q 21.96875 7.515625 27.59375 7.515625 
L 36.8125 7.515625 
L 36.8125 0 
L 27.59375 0 
Q 17.1875 0 13.234375 3.875 
Q 9.28125 7.765625 9.28125 18.015625 
L 9.28125 47.703125 
L 2.6875 47.703125 
L 2.6875 54.6875 
L 9.28125 54.6875 
L 9.28125 70.21875 
z
" id="DejaVuSans-116"/>
     <path d="M 54.890625 33.015625 
L 54.890625 0 
L 45.90625 0 
L 45.90625 32.71875 
Q 45.90625 40.484375 42.875 44.328125 
Q 39.84375 48.1875 33.796875 48.1875 
Q 26.515625 48.1875 22.3125 43.546875 
Q 18.109375 38.921875 18.109375 30.90625 
L 18.109375 0 
L 9.078125 0 
L 9.078125 75.984375 
L 18.109375 75.984375 
L 18.109375 46.1875 
Q 21.34375 51.125 25.703125 53.5625 
Q 30.078125 56 35.796875 56 
Q 45.21875 56 50.046875 50.171875 
Q 54.890625 44.34375 54.890625 33.015625 
z
" id="DejaVuSans-104"/>
     <path id="DejaVuSans-32"/>
     <path d="M 45.40625 46.390625 
L 45.40625 75.984375 
L 54.390625 75.984375 
L 54.390625 0 
L 45.40625 0 
L 45.40625 8.203125 
Q 42.578125 3.328125 38.25 0.953125 
Q 33.9375 -1.421875 27.875 -1.421875 
Q 17.96875 -1.421875 11.734375 6.484375 
Q 5.515625 14.40625 5.515625 27.296875 
Q 5.515625 40.1875 11.734375 48.09375 
Q 17.96875 56 27.875 56 
Q 33.9375 56 38.25 53.625 
Q 42.578125 51.265625 45.40625 46.390625 
z
M 14.796875 27.296875 
Q 14.796875 17.390625 18.875 11.75 
Q 22.953125 6.109375 30.078125 6.109375 
Q 37.203125 6.109375 41.296875 11.75 
Q 45.40625 17.390625 45.40625 27.296875 
Q 45.40625 37.203125 41.296875 42.84375 
Q 37.203125 48.484375 30.078125 48.484375 
Q 22.953125 48.484375 18.875 42.84375 
Q 14.796875 37.203125 14.796875 27.296875 
z
" id="DejaVuSans-100"/>
     <path d="M 45.40625 27.984375 
Q 45.40625 37.75 41.375 43.109375 
Q 37.359375 48.484375 30.078125 48.484375 
Q 22.859375 48.484375 18.828125 43.109375 
Q 14.796875 37.75 14.796875 27.984375 
Q 14.796875 18.265625 18.828125 12.890625 
Q 22.859375 7.515625 30.078125 7.515625 
Q 37.359375 7.515625 41.375 12.890625 
Q 45.40625 18.265625 45.40625 27.984375 
z
M 54.390625 6.78125 
Q 54.390625 -7.171875 48.1875 -13.984375 
Q 42 -20.796875 29.203125 -20.796875 
Q 24.46875 -20.796875 20.265625 -20.09375 
Q 16.0625 -19.390625 12.109375 -17.921875 
L 12.109375 -9.1875 
Q 16.0625 -11.328125 19.921875 -12.34375 
Q 23.78125 -13.375 27.78125 -13.375 
Q 36.625 -13.375 41.015625 -8.765625 
Q 45.40625 -4.15625 45.40625 5.171875 
L 45.40625 9.625 
Q 42.625 4.78125 38.28125 2.390625 
Q 33.9375 0 27.875 0 
Q 17.828125 0 11.671875 7.65625 
Q 5.515625 15.328125 5.515625 27.984375 
Q 5.515625 40.671875 11.671875 48.328125 
Q 17.828125 56 27.875 56 
Q 33.9375 56 38.28125 53.609375 
Q 42.625 51.21875 45.40625 46.390625 
L 45.40625 54.6875 
L 54.390625 54.6875 
z
" id="DejaVuSans-103"/>
     <path d="M 41.109375 46.296875 
Q 39.59375 47.171875 37.8125 47.578125 
Q 36.03125 48 33.890625 48 
Q 26.265625 48 22.1875 43.046875 
Q 18.109375 38.09375 18.109375 28.8125 
L 18.109375 0 
L 9.078125 0 
L 9.078125 54.6875 
L 18.109375 54.6875 
L 18.109375 46.1875 
Q 20.953125 51.171875 25.484375 53.578125 
Q 30.03125 56 36.53125 56 
Q 37.453125 56 38.578125 55.875 
Q 39.703125 55.765625 41.0625 55.515625 
z
" id="DejaVuSans-114"/>
    </defs>
    <g transform="translate(364.065955 28.56)scale(0.1728 -0.1728)">
     <use xlink:href="#DejaVuSans-49"/>
     <use x="63.623047" xlink:href="#DejaVuSans-48"/>
     <use x="127.246094" xlink:href="#DejaVuSans-116"/>
     <use x="166.455078" xlink:href="#DejaVuSans-104"/>
     <use x="229.833984" xlink:href="#DejaVuSans-32"/>
     <use x="261.621094" xlink:href="#DejaVuSans-100"/>
     <use x="325.097656" xlink:href="#DejaVuSans-101"/>
     <use x="386.621094" xlink:href="#DejaVuSans-103"/>
     <use x="450.097656" xlink:href="#DejaVuSans-114"/>
     <use x="488.960938" xlink:href="#DejaVuSans-101"/>
     <use x="550.484375" xlink:href="#DejaVuSans-101"/>
    </g>
   </g>
  </g>
  <g id="axes_2">
   <g id="patch_7">
    <path d="M 72 252 
L 274.909091 252 
L 274.909091 34.56 
L 72 34.56 
z
" style="fill:#ffffff;"/>
   </g>
   <g id="PathCollection_7">
    <g clip-path="url(#p5c6d2a3ee7)">
     <use style="fill:#3b4856;fill-opacity:0.75;stroke:#000000;stroke-opacity:0.75;" x="142.088138" xlink:href="#mfcf4b6bd2b" y="132.927512"/>
     <use style="fill:#3b4856;fill-opacity:0.75;stroke:#000000;stroke-opacity:0.75;" x="96.136626" xlink:href="#mfcf4b6bd2b" y="139.088806"/>
     <use style="fill:#3b4856;fill-opacity:0.75;stroke:#000000;stroke-opacity:0.75;" x="95.283937" xlink:href="#mfcf4b6bd2b" y="139.066185"/>
     <use style="fill:#3b4856;fill-opacity:0.75;stroke:#000000;stroke-opacity:0.75;" x="89.994218" xlink:href="#mfcf4b6bd2b" y="138.814357"/>
     <use style="fill:#3b4856;fill-opacity:0.75;stroke:#000000;stroke-opacity:0.75;" x="166.275482" xlink:href="#mfcf4b6bd2b" y="123.86286"/>
     <use style="fill:#3b4856;fill-opacity:0.75;stroke:#000000;stroke-opacity:0.75;" x="127.187928" xlink:href="#mfcf4b6bd2b" y="136.513054"/>
     <use style="fill:#3b4856;fill-opacity:0.75;stroke:#000000;stroke-opacity:0.75;" x="88.055096" xlink:href="#mfcf4b6bd2b" y="138.673939"/>
     <use style="fill:#3b4856;fill-opacity:0.75;stroke:#000000;stroke-opacity:0.75;" x="185.88363" xlink:href="#mfcf4b6bd2b" y="113.567497"/>
     <use style="fill:#3b4856;fill-opacity:0.75;stroke:#000000;stroke-opacity:0.75;" x="96.760732" xlink:href="#mfcf4b6bd2b" y="139.1022"/>
     <use style="fill:#3b4856;fill-opacity:0.75;stroke:#000000;stroke-opacity:0.75;" x="220.179228" xlink:href="#mfcf4b6bd2b" y="89.216613"/>
     <use style="fill:#3b4856;fill-opacity:0.75;stroke:#000000;stroke-opacity:0.75;" x="100.229494" xlink:href="#mfcf4b6bd2b" y="139.127926"/>
     <use style="fill:#3b4856;fill-opacity:0.75;stroke:#000000;stroke-opacity:0.75;" x="233.534978" xlink:href="#mfcf4b6bd2b" y="77.549723"/>
     <use style="fill:#3b4856;fill-opacity:0.75;stroke:#000000;stroke-opacity:0.75;" x="206.13351" xlink:href="#mfcf4b6bd2b" y="100.165505"/>
     <use style="fill:#3b4856;fill-opacity:0.75;stroke:#000000;stroke-opacity:0.75;" x="260.873889" xlink:href="#mfcf4b6bd2b" y="49.850095"/>
     <use style="fill:#3b4856;fill-opacity:0.75;stroke:#000000;stroke-opacity:0.75;" x="199.117898" xlink:href="#mfcf4b6bd2b" y="105.127261"/>
    </g>
   </g>
   <g id="PathCollection_8">
    <g clip-path="url(#p5c6d2a3ee7)">
     <use style="fill:#348fea;fill-opacity:0.75;stroke:#000000;stroke-opacity:0.75;" x="142.088138" xlink:href="#m46d4d9c4b4" y="131.19177"/>
     <use style="fill:#348fea;fill-opacity:0.75;stroke:#000000;stroke-opacity:0.75;" x="96.136626" xlink:href="#m46d4d9c4b4" y="144.21928"/>
     <use style="fill:#348fea;fill-opacity:0.75;stroke:#000000;stroke-opacity:0.75;" x="95.283937" xlink:href="#m46d4d9c4b4" y="144.394564"/>
     <use style="fill:#348fea;fill-opacity:0.75;stroke:#000000;stroke-opacity:0.75;" x="89.994218" xlink:href="#m46d4d9c4b4" y="145.427839"/>
     <use style="fill:#348fea;fill-opacity:0.75;stroke:#000000;stroke-opacity:0.75;" x="166.275482" xlink:href="#m46d4d9c4b4" y="121.509483"/>
     <use style="fill:#348fea;fill-opacity:0.75;stroke:#000000;stroke-opacity:0.75;" x="127.187928" xlink:href="#m46d4d9c4b4" y="136.186523"/>
     <use style="fill:#348fea;fill-opacity:0.75;stroke:#000000;stroke-opacity:0.75;" x="88.055096" xlink:href="#m46d4d9c4b4" y="145.783278"/>
     <use style="fill:#348fea;fill-opacity:0.75;stroke:#000000;stroke-opacity:0.75;" x="185.88363" xlink:href="#m46d4d9c4b4" y="112.23024"/>
     <use style="fill:#348fea;fill-opacity:0.75;stroke:#000000;stroke-opacity:0.75;" x="96.760732" xlink:href="#m46d4d9c4b4" y="144.089451"/>
     <use style="fill:#348fea;fill-opacity:0.75;stroke:#000000;stroke-opacity:0.75;" x="220.179228" xlink:href="#m46d4d9c4b4" y="92.921926"/>
     <use style="fill:#348fea;fill-opacity:0.75;stroke:#000000;stroke-opacity:0.75;" x="100.229494" xlink:href="#m46d4d9c4b4" y="143.344222"/>
     <use style="fill:#348fea;fill-opacity:0.75;stroke:#000000;stroke-opacity:0.75;" x="233.534978" xlink:href="#m46d4d9c4b4" y="84.342886"/>
     <use style="fill:#348fea;fill-opacity:0.75;stroke:#000000;stroke-opacity:0.75;" x="206.13351" xlink:href="#m46d4d9c4b4" y="101.303256"/>
     <use style="fill:#348fea;fill-opacity:0.75;stroke:#000000;stroke-opacity:0.75;" x="260.873889" xlink:href="#m46d4d9c4b4" y="64.92913"/>
     <use style="fill:#348fea;fill-opacity:0.75;stroke:#000000;stroke-opacity:0.75;" x="199.117898" xlink:href="#m46d4d9c4b4" y="105.243544"/>
    </g>
   </g>
   <g id="PathCollection_9">
    <g clip-path="url(#p5c6d2a3ee7)">
     <use style="fill:#4cb9c0;fill-opacity:0.75;stroke:#000000;stroke-opacity:0.75;" x="142.088138" xlink:href="#m3a7edce813" y="151.726891"/>
     <use style="fill:#4cb9c0;fill-opacity:0.75;stroke:#000000;stroke-opacity:0.75;" x="96.136626" xlink:href="#m3a7edce813" y="146.472838"/>
     <use style="fill:#4cb9c0;fill-opacity:0.75;stroke:#000000;stroke-opacity:0.75;" x="95.283937" xlink:href="#m3a7edce813" y="146.520571"/>
     <use style="fill:#4cb9c0;fill-opacity:0.75;stroke:#000000;stroke-opacity:0.75;" x="89.994218" xlink:href="#m3a7edce813" y="146.934918"/>
     <use style="fill:#4cb9c0;fill-opacity:0.75;stroke:#000000;stroke-opacity:0.75;" x="166.275482" xlink:href="#m3a7edce813" y="160.665817"/>
     <use style="fill:#4cb9c0;fill-opacity:0.75;stroke:#000000;stroke-opacity:0.75;" x="127.187928" xlink:href="#m3a7edce813" y="148.339582"/>
     <use style="fill:#4cb9c0;fill-opacity:0.75;stroke:#000000;stroke-opacity:0.75;" x="88.055096" xlink:href="#m3a7edce813" y="147.13782"/>
     <use style="fill:#4cb9c0;fill-opacity:0.75;stroke:#000000;stroke-opacity:0.75;" x="185.88363" xlink:href="#m3a7edce813" y="171.037343"/>
     <use style="fill:#4cb9c0;fill-opacity:0.75;stroke:#000000;stroke-opacity:0.75;" x="96.760732" xlink:href="#m3a7edce813" y="146.441256"/>
     <use style="fill:#4cb9c0;fill-opacity:0.75;stroke:#000000;stroke-opacity:0.75;" x="220.179228" xlink:href="#m3a7edce813" y="195.904817"/>
     <use style="fill:#4cb9c0;fill-opacity:0.75;stroke:#000000;stroke-opacity:0.75;" x="100.229494" xlink:href="#m3a7edce813" y="146.317383"/>
     <use style="fill:#4cb9c0;fill-opacity:0.75;stroke:#000000;stroke-opacity:0.75;" x="233.534978" xlink:href="#m3a7edce813" y="207.904863"/>
     <use style="fill:#4cb9c0;fill-opacity:0.75;stroke:#000000;stroke-opacity:0.75;" x="206.13351" xlink:href="#m3a7edce813" y="184.685372"/>
     <use style="fill:#4cb9c0;fill-opacity:0.75;stroke:#000000;stroke-opacity:0.75;" x="260.873889" xlink:href="#m3a7edce813" y="236.517174"/>
     <use style="fill:#4cb9c0;fill-opacity:0.75;stroke:#000000;stroke-opacity:0.75;" x="199.117898" xlink:href="#m3a7edce813" y="179.619122"/>
    </g>
   </g>
   <g id="PathCollection_10">
    <g clip-path="url(#p5c6d2a3ee7)">
     <use style="fill:#97c804;fill-opacity:0.75;stroke:#000000;stroke-opacity:0.75;" x="142.088138" xlink:href="#m743ba7d9d7" y="145.336863"/>
     <use style="fill:#97c804;fill-opacity:0.75;stroke:#000000;stroke-opacity:0.75;" x="96.136626" xlink:href="#m743ba7d9d7" y="140.429413"/>
     <use style="fill:#97c804;fill-opacity:0.75;stroke:#000000;stroke-opacity:0.75;" x="95.283937" xlink:href="#m743ba7d9d7" y="140.300837"/>
     <use style="fill:#97c804;fill-opacity:0.75;stroke:#000000;stroke-opacity:0.75;" x="89.994218" xlink:href="#m743ba7d9d7" y="139.472672"/>
     <use style="fill:#97c804;fill-opacity:0.75;stroke:#000000;stroke-opacity:0.75;" x="166.275482" xlink:href="#m743ba7d9d7" y="146.325449"/>
     <use style="fill:#97c804;fill-opacity:0.75;stroke:#000000;stroke-opacity:0.75;" x="127.187928" xlink:href="#m743ba7d9d7" y="144.180446"/>
     <use style="fill:#97c804;fill-opacity:0.75;stroke:#000000;stroke-opacity:0.75;" x="88.055096" xlink:href="#m743ba7d9d7" y="139.155905"/>
     <use style="fill:#97c804;fill-opacity:0.75;stroke:#000000;stroke-opacity:0.75;" x="185.88363" xlink:href="#m743ba7d9d7" y="146.319727"/>
     <use style="fill:#97c804;fill-opacity:0.75;stroke:#000000;stroke-opacity:0.75;" x="96.760732" xlink:href="#m743ba7d9d7" y="140.522654"/>
     <use style="fill:#97c804;fill-opacity:0.75;stroke:#000000;stroke-opacity:0.75;" x="220.179228" xlink:href="#m743ba7d9d7" y="144.572143"/>
     <use style="fill:#97c804;fill-opacity:0.75;stroke:#000000;stroke-opacity:0.75;" x="100.229494" xlink:href="#m743ba7d9d7" y="141.027543"/>
     <use style="fill:#97c804;fill-opacity:0.75;stroke:#000000;stroke-opacity:0.75;" x="233.534978" xlink:href="#m743ba7d9d7" y="143.293403"/>
     <use style="fill:#97c804;fill-opacity:0.75;stroke:#000000;stroke-opacity:0.75;" x="206.13351" xlink:href="#m743ba7d9d7" y="145.555197"/>
     <use style="fill:#97c804;fill-opacity:0.75;stroke:#000000;stroke-opacity:0.75;" x="260.873889" xlink:href="#m743ba7d9d7" y="139.630156"/>
     <use style="fill:#97c804;fill-opacity:0.75;stroke:#000000;stroke-opacity:0.75;" x="199.117898" xlink:href="#m743ba7d9d7" y="145.907337"/>
    </g>
   </g>
   <g id="PathCollection_11">
    <g clip-path="url(#p5c6d2a3ee7)">
     <use style="fill:#ffc100;fill-opacity:0.75;stroke:#000000;stroke-opacity:0.75;" x="142.088138" xlink:href="#mc810aa9f1b" y="150.341747"/>
     <use style="fill:#ffc100;fill-opacity:0.75;stroke:#000000;stroke-opacity:0.75;" x="96.136626" xlink:href="#mc810aa9f1b" y="149.583414"/>
     <use style="fill:#ffc100;fill-opacity:0.75;stroke:#000000;stroke-opacity:0.75;" x="95.283937" xlink:href="#mc810aa9f1b" y="149.619402"/>
     <use style="fill:#ffc100;fill-opacity:0.75;stroke:#000000;stroke-opacity:0.75;" x="89.994218" xlink:href="#mc810aa9f1b" y="149.883413"/>
     <use style="fill:#ffc100;fill-opacity:0.75;stroke:#000000;stroke-opacity:0.75;" x="166.275482" xlink:href="#mc810aa9f1b" y="152.868864"/>
     <use style="fill:#ffc100;fill-opacity:0.75;stroke:#000000;stroke-opacity:0.75;" x="127.187928" xlink:href="#mc810aa9f1b" y="149.515504"/>
     <use style="fill:#ffc100;fill-opacity:0.75;stroke:#000000;stroke-opacity:0.75;" x="88.055096" xlink:href="#mc810aa9f1b" y="149.997777"/>
     <use style="fill:#ffc100;fill-opacity:0.75;stroke:#000000;stroke-opacity:0.75;" x="185.88363" xlink:href="#mc810aa9f1b" y="155.994704"/>
     <use style="fill:#ffc100;fill-opacity:0.75;stroke:#000000;stroke-opacity:0.75;" x="96.760732" xlink:href="#mc810aa9f1b" y="149.558229"/>
     <use style="fill:#ffc100;fill-opacity:0.75;stroke:#000000;stroke-opacity:0.75;" x="220.179228" xlink:href="#mc810aa9f1b" y="163.780802"/>
     <use style="fill:#ffc100;fill-opacity:0.75;stroke:#000000;stroke-opacity:0.75;" x="100.229494" xlink:href="#mc810aa9f1b" y="149.436062"/>
     <use style="fill:#ffc100;fill-opacity:0.75;stroke:#000000;stroke-opacity:0.75;" x="233.534978" xlink:href="#mc810aa9f1b" y="167.611232"/>
     <use style="fill:#ffc100;fill-opacity:0.75;stroke:#000000;stroke-opacity:0.75;" x="206.13351" xlink:href="#mc810aa9f1b" y="160.235251"/>
     <use style="fill:#ffc100;fill-opacity:0.75;stroke:#000000;stroke-opacity:0.75;" x="260.873889" xlink:href="#mc810aa9f1b" y="176.847548"/>
     <use style="fill:#ffc100;fill-opacity:0.75;stroke:#000000;stroke-opacity:0.75;" x="199.117898" xlink:href="#mc810aa9f1b" y="158.649644"/>
    </g>
   </g>
   <g id="PathCollection_12">
    <g clip-path="url(#p5c6d2a3ee7)">
     <use style="fill:#e06a27;fill-opacity:0.75;stroke:#000000;stroke-opacity:0.75;" x="142.088138" xlink:href="#mb334654560" y="145.970135"/>
     <use style="fill:#e06a27;fill-opacity:0.75;stroke:#000000;stroke-opacity:0.75;" x="96.136626" xlink:href="#mb334654560" y="145.751438"/>
     <use style="fill:#e06a27;fill-opacity:0.75;stroke:#000000;stroke-opacity:0.75;" x="95.283937" xlink:href="#mb334654560" y="145.621489"/>
     <use style="fill:#e06a27;fill-opacity:0.75;stroke:#000000;stroke-opacity:0.75;" x="89.994218" xlink:href="#mb334654560" y="144.712848"/>
     <use style="fill:#e06a27;fill-opacity:0.75;stroke:#000000;stroke-opacity:0.75;" x="166.275482" xlink:href="#mb334654560" y="140.73387"/>
     <use style="fill:#e06a27;fill-opacity:0.75;stroke:#000000;stroke-opacity:0.75;" x="127.187928" xlink:href="#mb334654560" y="147.358677"/>
     <use style="fill:#e06a27;fill-opacity:0.75;stroke:#000000;stroke-opacity:0.75;" x="88.055096" xlink:href="#mb334654560" y="144.335538"/>
     <use style="fill:#e06a27;fill-opacity:0.75;stroke:#000000;stroke-opacity:0.75;" x="185.88363" xlink:href="#mb334654560" y="133.780095"/>
     <use style="fill:#e06a27;fill-opacity:0.75;stroke:#000000;stroke-opacity:0.75;" x="96.760732" xlink:href="#mb334654560" y="145.843644"/>
     <use style="fill:#e06a27;fill-opacity:0.75;stroke:#000000;stroke-opacity:0.75;" x="220.179228" xlink:href="#mb334654560" y="115.78616"/>
     <use style="fill:#e06a27;fill-opacity:0.75;stroke:#000000;stroke-opacity:0.75;" x="100.229494" xlink:href="#mb334654560" y="146.311338"/>
     <use style="fill:#e06a27;fill-opacity:0.75;stroke:#000000;stroke-opacity:0.75;" x="233.534978" xlink:href="#mb334654560" y="106.771242"/>
     <use style="fill:#e06a27;fill-opacity:0.75;stroke:#000000;stroke-opacity:0.75;" x="206.13351" xlink:href="#mb334654560" y="124.052745"/>
     <use style="fill:#e06a27;fill-opacity:0.75;stroke:#000000;stroke-opacity:0.75;" x="260.873889" xlink:href="#mb334654560" y="84.808476"/>
     <use style="fill:#e06a27;fill-opacity:0.75;stroke:#000000;stroke-opacity:0.75;" x="199.117898" xlink:href="#mb334654560" y="127.715682"/>
    </g>
   </g>
   <g id="matplotlib.axis_3">
    <g id="xtick_7">
     <g id="line2d_19">
      <g>
       <use style="stroke:#000000;stroke-width:0.8;" x="94.460521" xlink:href="#m16a8d76c24" y="252"/>
      </g>
     </g>
     <g id="text_15">
      <!-- 0 -->
      <g transform="translate(91.279271 266.598437)scale(0.1 -0.1)">
       <use xlink:href="#DejaVuSans-48"/>
      </g>
     </g>
    </g>
    <g id="xtick_8">
     <g id="line2d_20">
      <g>
       <use style="stroke:#000000;stroke-width:0.8;" x="128.620301" xlink:href="#m16a8d76c24" y="252"/>
      </g>
     </g>
     <g id="text_16">
      <!-- 1 -->
      <g transform="translate(125.439051 266.598437)scale(0.1 -0.1)">
       <use xlink:href="#DejaVuSans-49"/>
      </g>
     </g>
    </g>
    <g id="xtick_9">
     <g id="line2d_21">
      <g>
       <use style="stroke:#000000;stroke-width:0.8;" x="162.780081" xlink:href="#m16a8d76c24" y="252"/>
      </g>
     </g>
     <g id="text_17">
      <!-- 2 -->
      <g transform="translate(159.598831 266.598437)scale(0.1 -0.1)">
       <use xlink:href="#DejaVuSans-50"/>
      </g>
     </g>
    </g>
    <g id="xtick_10">
     <g id="line2d_22">
      <g>
       <use style="stroke:#000000;stroke-width:0.8;" x="196.93986" xlink:href="#m16a8d76c24" y="252"/>
      </g>
     </g>
     <g id="text_18">
      <!-- 3 -->
      <g transform="translate(193.75861 266.598437)scale(0.1 -0.1)">
       <use xlink:href="#DejaVuSans-51"/>
      </g>
     </g>
    </g>
    <g id="xtick_11">
     <g id="line2d_23">
      <g>
       <use style="stroke:#000000;stroke-width:0.8;" x="231.09964" xlink:href="#m16a8d76c24" y="252"/>
      </g>
     </g>
     <g id="text_19">
      <!-- 4 -->
      <g transform="translate(227.91839 266.598437)scale(0.1 -0.1)">
       <use xlink:href="#DejaVuSans-52"/>
      </g>
     </g>
    </g>
    <g id="xtick_12">
     <g id="line2d_24">
      <g>
       <use style="stroke:#000000;stroke-width:0.8;" x="265.259419" xlink:href="#m16a8d76c24" y="252"/>
      </g>
     </g>
     <g id="text_20">
      <!-- 5 -->
      <g transform="translate(262.078169 266.598437)scale(0.1 -0.1)">
       <use xlink:href="#DejaVuSans-53"/>
      </g>
     </g>
    </g>
   </g>
   <g id="matplotlib.axis_4">
    <g id="ytick_7">
     <g id="line2d_25">
      <g>
       <use style="stroke:#000000;stroke-width:0.8;" x="72" xlink:href="#m90557cdd98" y="240.02364"/>
      </g>
     </g>
     <g id="text_21">
      <!-- −30 -->
      <g transform="translate(43.895313 243.822859)scale(0.1 -0.1)">
       <use xlink:href="#DejaVuSans-8722"/>
       <use x="83.789062" xlink:href="#DejaVuSans-51"/>
       <use x="147.412109" xlink:href="#DejaVuSans-48"/>
      </g>
     </g>
    </g>
    <g id="ytick_8">
     <g id="line2d_26">
      <g>
       <use style="stroke:#000000;stroke-width:0.8;" x="72" xlink:href="#m90557cdd98" y="207.29994"/>
      </g>
     </g>
     <g id="text_22">
      <!-- −20 -->
      <g transform="translate(43.895313 211.099159)scale(0.1 -0.1)">
       <use xlink:href="#DejaVuSans-8722"/>
       <use x="83.789062" xlink:href="#DejaVuSans-50"/>
       <use x="147.412109" xlink:href="#DejaVuSans-48"/>
      </g>
     </g>
    </g>
    <g id="ytick_9">
     <g id="line2d_27">
      <g>
       <use style="stroke:#000000;stroke-width:0.8;" x="72" xlink:href="#m90557cdd98" y="174.57624"/>
      </g>
     </g>
     <g id="text_23">
      <!-- −10 -->
      <g transform="translate(43.895313 178.375459)scale(0.1 -0.1)">
       <use xlink:href="#DejaVuSans-8722"/>
       <use x="83.789062" xlink:href="#DejaVuSans-49"/>
       <use x="147.412109" xlink:href="#DejaVuSans-48"/>
      </g>
     </g>
    </g>
    <g id="ytick_10">
     <g id="line2d_28">
      <g>
       <use style="stroke:#000000;stroke-width:0.8;" x="72" xlink:href="#m90557cdd98" y="141.85254"/>
      </g>
     </g>
     <g id="text_24">
      <!-- 0 -->
      <g transform="translate(58.6375 145.651759)scale(0.1 -0.1)">
       <use xlink:href="#DejaVuSans-48"/>
      </g>
     </g>
    </g>
    <g id="ytick_11">
     <g id="line2d_29">
      <g>
       <use style="stroke:#000000;stroke-width:0.8;" x="72" xlink:href="#m90557cdd98" y="109.12884"/>
      </g>
     </g>
     <g id="text_25">
      <!-- 10 -->
      <g transform="translate(52.275 112.928059)scale(0.1 -0.1)">
       <use xlink:href="#DejaVuSans-49"/>
       <use x="63.623047" xlink:href="#DejaVuSans-48"/>
      </g>
     </g>
    </g>
    <g id="ytick_12">
     <g id="line2d_30">
      <g>
       <use style="stroke:#000000;stroke-width:0.8;" x="72" xlink:href="#m90557cdd98" y="76.40514"/>
      </g>
     </g>
     <g id="text_26">
      <!-- 20 -->
      <g transform="translate(52.275 80.204358)scale(0.1 -0.1)">
       <use xlink:href="#DejaVuSans-50"/>
       <use x="63.623047" xlink:href="#DejaVuSans-48"/>
      </g>
     </g>
    </g>
    <g id="ytick_13">
     <g id="line2d_31">
      <g>
       <use style="stroke:#000000;stroke-width:0.8;" x="72" xlink:href="#m90557cdd98" y="43.68144"/>
      </g>
     </g>
     <g id="text_27">
      <!-- 30 -->
      <g transform="translate(52.275 47.480658)scale(0.1 -0.1)">
       <use xlink:href="#DejaVuSans-51"/>
       <use x="63.623047" xlink:href="#DejaVuSans-48"/>
      </g>
     </g>
    </g>
   </g>
   <g id="line2d_32">
    <path clip-path="url(#p5c6d2a3ee7)" d="M 81.22314 137.973583 
L 88.055096 138.673939 
L 94.887052 139.053954 
L 101.719008 139.113629 
L 108.550964 138.852964 
L 115.38292 138.271957 
L 122.214876 137.37061 
L 129.046832 136.148923 
L 135.878788 134.606894 
L 142.710744 132.744525 
L 149.5427 130.561816 
L 156.374656 128.058766 
L 163.206612 125.235375 
L 170.038567 122.091643 
L 176.870523 118.627571 
L 183.702479 114.843159 
L 190.534435 110.738405 
L 197.366391 106.313311 
L 204.198347 101.567877 
L 211.030303 96.502101 
L 217.862259 91.115985 
L 224.694215 85.409529 
L 231.526171 79.382732 
L 238.358127 73.035594 
L 245.190083 66.368115 
L 252.022039 59.380296 
L 258.853994 52.072137 
L 265.68595 44.443636 
" style="fill:none;stroke:#3b4856;stroke-linecap:square;stroke-width:1.5;"/>
   </g>
   <g id="line2d_33">
    <path clip-path="url(#p5c6d2a3ee7)" d="M 81.22314 146.93578 
L 88.055096 145.783278 
L 94.887052 144.475323 
L 101.719008 143.011916 
L 108.550964 141.393057 
L 115.38292 139.618745 
L 122.214876 137.68898 
L 129.046832 135.603763 
L 135.878788 133.363093 
L 142.710744 130.96697 
L 149.5427 128.415396 
L 156.374656 125.708368 
L 163.206612 122.845888 
L 170.038567 119.827955 
L 176.870523 116.65457 
L 183.702479 113.325733 
L 190.534435 109.841442 
L 197.366391 106.2017 
L 204.198347 102.406504 
L 211.030303 98.455856 
L 217.862259 94.349756 
L 224.694215 90.088203 
L 231.526171 85.671197 
L 238.358127 81.098739 
L 245.190083 76.370828 
L 252.022039 71.487465 
L 258.853994 66.448649 
L 265.68595 61.254381 
" style="fill:none;stroke:#348fea;stroke-linecap:square;stroke-width:1.5;"/>
   </g>
   <g id="line2d_34">
    <path clip-path="url(#p5c6d2a3ee7)" d="M 81.22314 148.070747 
L 88.055096 147.13782 
L 94.887052 146.544593 
L 101.719008 146.291066 
L 108.550964 146.377238 
L 115.38292 146.803111 
L 122.214876 147.568683 
L 129.046832 148.673955 
L 135.878788 150.118927 
L 142.710744 151.903599 
L 149.5427 154.027971 
L 156.374656 156.492042 
L 163.206612 159.295814 
L 170.038567 162.439285 
L 176.870523 165.922456 
L 183.702479 169.745327 
L 190.534435 173.907897 
L 197.366391 178.410168 
L 204.198347 183.252138 
L 211.030303 188.433808 
L 217.862259 193.955178 
L 224.694215 199.816248 
L 231.526171 206.017018 
L 238.358127 212.557487 
L 245.190083 219.437657 
L 252.022039 226.657526 
L 258.853994 234.217095 
L 265.68595 242.116364 
" style="fill:none;stroke:#4cb9c0;stroke-linecap:square;stroke-width:1.5;"/>
   </g>
   <g id="line2d_35">
    <path clip-path="url(#p5c6d2a3ee7)" d="M 81.22314 137.983542 
L 88.055096 139.155905 
L 94.887052 140.240526 
L 101.719008 141.237405 
L 108.550964 142.146542 
L 115.38292 142.967937 
L 122.214876 143.701591 
L 129.046832 144.347502 
L 135.878788 144.905672 
L 142.710744 145.3761 
L 149.5427 145.758787 
L 156.374656 146.053731 
L 163.206612 146.260934 
L 170.038567 146.380394 
L 176.870523 146.412113 
L 183.702479 146.35609 
L 190.534435 146.212326 
L 197.366391 145.980819 
L 204.198347 145.661571 
L 211.030303 145.254581 
L 217.862259 144.759848 
L 224.694215 144.177375 
L 231.526171 143.507159 
L 238.358127 142.749202 
L 245.190083 141.903502 
L 252.022039 140.970061 
L 258.853994 139.948878 
L 265.68595 138.839953 
" style="fill:none;stroke:#97c804;stroke-linecap:square;stroke-width:1.5;"/>
   </g>
   <g id="line2d_36">
    <path clip-path="url(#p5c6d2a3ee7)" d="M 81.22314 150.475874 
L 88.055096 149.997777 
L 94.887052 149.636775 
L 101.719008 149.392866 
L 108.550964 149.266052 
L 115.38292 149.256332 
L 122.214876 149.363706 
L 129.046832 149.588175 
L 135.878788 149.929738 
L 142.710744 150.388395 
L 149.5427 150.964146 
L 156.374656 151.656992 
L 163.206612 152.466932 
L 170.038567 153.393966 
L 176.870523 154.438094 
L 183.702479 155.599317 
L 190.534435 156.877634 
L 197.366391 158.273045 
L 204.198347 159.78555 
L 211.030303 161.41515 
L 217.862259 163.161844 
L 224.694215 165.025632 
L 231.526171 167.006515 
L 238.358127 169.104492 
L 245.190083 171.319563 
L 252.022039 173.651728 
L 258.853994 176.100987 
L 265.68595 178.667341 
" style="fill:none;stroke:#ffc100;stroke-linecap:square;stroke-width:1.5;"/>
   </g>
   <g id="line2d_37">
    <path clip-path="url(#p5c6d2a3ee7)" d="M 81.22314 142.817168 
L 88.055096 144.335538 
L 94.887052 145.55944 
L 101.719008 146.488873 
L 108.550964 147.123837 
L 115.38292 147.464333 
L 122.214876 147.51036 
L 129.046832 147.261918 
L 135.878788 146.719008 
L 142.710744 145.881629 
L 149.5427 144.749781 
L 156.374656 143.323465 
L 163.206612 141.60268 
L 170.038567 139.587427 
L 176.870523 137.277705 
L 183.702479 134.673514 
L 190.534435 131.774855 
L 197.366391 128.581726 
L 204.198347 125.09413 
L 211.030303 121.312064 
L 217.862259 117.23553 
L 224.694215 112.864528 
L 231.526171 108.199056 
L 238.358127 103.239116 
L 245.190083 97.984707 
L 252.022039 92.43583 
L 258.853994 86.592484 
L 265.68595 80.45467 
" style="fill:none;stroke:#e06a27;stroke-linecap:square;stroke-width:1.5;"/>
   </g>
   <g id="patch_8">
    <path d="M 72 252 
L 72 34.56 
" style="fill:none;stroke:#000000;stroke-linecap:square;stroke-linejoin:miter;stroke-width:0.8;"/>
   </g>
   <g id="patch_9">
    <path d="M 274.909091 252 
L 274.909091 34.56 
" style="fill:none;stroke:#000000;stroke-linecap:square;stroke-linejoin:miter;stroke-width:0.8;"/>
   </g>
   <g id="patch_10">
    <path d="M 72 252 
L 274.909091 252 
" style="fill:none;stroke:#000000;stroke-linecap:square;stroke-linejoin:miter;stroke-width:0.8;"/>
   </g>
   <g id="patch_11">
    <path d="M 72 34.56 
L 274.909091 34.56 
" style="fill:none;stroke:#000000;stroke-linecap:square;stroke-linejoin:miter;stroke-width:0.8;"/>
   </g>
   <g id="text_28">
    <!-- Quadratic -->
    <defs>
     <path d="M 39.40625 66.21875 
Q 28.65625 66.21875 22.328125 58.203125 
Q 16.015625 50.203125 16.015625 36.375 
Q 16.015625 22.609375 22.328125 14.59375 
Q 28.65625 6.59375 39.40625 6.59375 
Q 50.140625 6.59375 56.421875 14.59375 
Q 62.703125 22.609375 62.703125 36.375 
Q 62.703125 50.203125 56.421875 58.203125 
Q 50.140625 66.21875 39.40625 66.21875 
z
M 53.21875 1.3125 
L 66.21875 -12.890625 
L 54.296875 -12.890625 
L 43.5 -1.21875 
Q 41.890625 -1.3125 41.03125 -1.359375 
Q 40.1875 -1.421875 39.40625 -1.421875 
Q 24.03125 -1.421875 14.8125 8.859375 
Q 5.609375 19.140625 5.609375 36.375 
Q 5.609375 53.65625 14.8125 63.9375 
Q 24.03125 74.21875 39.40625 74.21875 
Q 54.734375 74.21875 63.90625 63.9375 
Q 73.09375 53.65625 73.09375 36.375 
Q 73.09375 23.6875 67.984375 14.640625 
Q 62.890625 5.609375 53.21875 1.3125 
z
" id="DejaVuSans-81"/>
     <path d="M 8.5 21.578125 
L 8.5 54.6875 
L 17.484375 54.6875 
L 17.484375 21.921875 
Q 17.484375 14.15625 20.5 10.265625 
Q 23.53125 6.390625 29.59375 6.390625 
Q 36.859375 6.390625 41.078125 11.03125 
Q 45.3125 15.671875 45.3125 23.6875 
L 45.3125 54.6875 
L 54.296875 54.6875 
L 54.296875 0 
L 45.3125 0 
L 45.3125 8.40625 
Q 42.046875 3.421875 37.71875 1 
Q 33.40625 -1.421875 27.6875 -1.421875 
Q 18.265625 -1.421875 13.375 4.4375 
Q 8.5 10.296875 8.5 21.578125 
z
M 31.109375 56 
z
" id="DejaVuSans-117"/>
     <path d="M 34.28125 27.484375 
Q 23.390625 27.484375 19.1875 25 
Q 14.984375 22.515625 14.984375 16.5 
Q 14.984375 11.71875 18.140625 8.90625 
Q 21.296875 6.109375 26.703125 6.109375 
Q 34.1875 6.109375 38.703125 11.40625 
Q 43.21875 16.703125 43.21875 25.484375 
L 43.21875 27.484375 
z
M 52.203125 31.203125 
L 52.203125 0 
L 43.21875 0 
L 43.21875 8.296875 
Q 40.140625 3.328125 35.546875 0.953125 
Q 30.953125 -1.421875 24.3125 -1.421875 
Q 15.921875 -1.421875 10.953125 3.296875 
Q 6 8.015625 6 15.921875 
Q 6 25.140625 12.171875 29.828125 
Q 18.359375 34.515625 30.609375 34.515625 
L 43.21875 34.515625 
L 43.21875 35.40625 
Q 43.21875 41.609375 39.140625 45 
Q 35.0625 48.390625 27.6875 48.390625 
Q 23 48.390625 18.546875 47.265625 
Q 14.109375 46.140625 10.015625 43.890625 
L 10.015625 52.203125 
Q 14.9375 54.109375 19.578125 55.046875 
Q 24.21875 56 28.609375 56 
Q 40.484375 56 46.34375 49.84375 
Q 52.203125 43.703125 52.203125 31.203125 
z
" id="DejaVuSans-97"/>
     <path d="M 9.421875 54.6875 
L 18.40625 54.6875 
L 18.40625 0 
L 9.421875 0 
z
M 9.421875 75.984375 
L 18.40625 75.984375 
L 18.40625 64.59375 
L 9.421875 64.59375 
z
" id="DejaVuSans-105"/>
     <path d="M 48.78125 52.59375 
L 48.78125 44.1875 
Q 44.96875 46.296875 41.140625 47.34375 
Q 37.3125 48.390625 33.40625 48.390625 
Q 24.65625 48.390625 19.8125 42.84375 
Q 14.984375 37.3125 14.984375 27.296875 
Q 14.984375 17.28125 19.8125 11.734375 
Q 24.65625 6.203125 33.40625 6.203125 
Q 37.3125 6.203125 41.140625 7.25 
Q 44.96875 8.296875 48.78125 10.40625 
L 48.78125 2.09375 
Q 45.015625 0.34375 40.984375 -0.53125 
Q 36.96875 -1.421875 32.421875 -1.421875 
Q 20.0625 -1.421875 12.78125 6.34375 
Q 5.515625 14.109375 5.515625 27.296875 
Q 5.515625 40.671875 12.859375 48.328125 
Q 20.21875 56 33.015625 56 
Q 37.15625 56 41.109375 55.140625 
Q 45.0625 54.296875 48.78125 52.59375 
z
" id="DejaVuSans-99"/>
    </defs>
    <g transform="translate(131.013245 28.56)scale(0.1728 -0.1728)">
     <use xlink:href="#DejaVuSans-81"/>
     <use x="78.710938" xlink:href="#DejaVuSans-117"/>
     <use x="142.089844" xlink:href="#DejaVuSans-97"/>
     <use x="203.369141" xlink:href="#DejaVuSans-100"/>
     <use x="266.845703" xlink:href="#DejaVuSans-114"/>
     <use x="307.958984" xlink:href="#DejaVuSans-97"/>
     <use x="369.238281" xlink:href="#DejaVuSans-116"/>
     <use x="408.447266" xlink:href="#DejaVuSans-105"/>
     <use x="436.230469" xlink:href="#DejaVuSans-99"/>
    </g>
   </g>
  </g>
 </g>
 <defs>
  <clipPath id="p479f7a6e24">
   <rect height="217.44" width="202.909091" x="315.490909" y="34.56"/>
  </clipPath>
  <clipPath id="p5c6d2a3ee7">
   <rect height="217.44" width="202.909091" x="72" y="34.56"/>
  </clipPath>
 </defs>
</svg>
