<?xml version="1.0" encoding="utf-8" standalone="no"?>
<!DOCTYPE svg PUBLIC "-//W3C//DTD SVG 1.1//EN"
  "http://www.w3.org/Graphics/SVG/1.1/DTD/svg11.dtd">
<!-- Created with matplotlib (https://matplotlib.org/) -->
<svg height="360pt" version="1.1" viewBox="0 0 432 360" width="432pt" xmlns="http://www.w3.org/2000/svg" xmlns:xlink="http://www.w3.org/1999/xlink">
 <defs>
  <style type="text/css">
*{stroke-linecap:butt;stroke-linejoin:round;}
  </style>
 </defs>
 <g id="figure_1">
  <g id="patch_1">
   <path d="M 0 360 
L 432 360 
L 432 0 
L 0 0 
z
" style="fill:#ffffff;"/>
  </g>
  <g id="axes_1">
   <g id="patch_2">
    <path d="M 54 315 
L 388.8 315 
L 388.8 43.2 
L 54 43.2 
z
" style="fill:#ffffff;"/>
   </g>
   <g id="PathCollection_1">
    <defs>
     <path d="M 0 3 
C 0.795609 3 1.55874 2.683901 2.12132 2.12132 
C 2.683901 1.55874 3 0.795609 3 0 
C 3 -0.795609 2.683901 -1.55874 2.12132 -2.12132 
C 1.55874 -2.683901 0.795609 -3 0 -3 
C -0.795609 -3 -1.55874 -2.683901 -2.12132 -2.12132 
C -2.683901 -1.55874 -3 -0.795609 -3 0 
C -3 0.795609 -2.683901 1.55874 -2.12132 2.12132 
C -1.55874 2.683901 -0.795609 3 0 3 
z
" id="mc005316c0c" style="stroke:#3b4856;stroke-opacity:0.75;"/>
    </defs>
    <g clip-path="url(#p65a1b40d19)">
     <use style="fill:#3b4856;fill-opacity:0.75;stroke:#3b4856;stroke-opacity:0.75;" x="329.916095" xlink:href="#mc005316c0c" y="266.839366"/>
     <use style="fill:#3b4856;fill-opacity:0.75;stroke:#3b4856;stroke-opacity:0.75;" x="223.84883" xlink:href="#mc005316c0c" y="97.722085"/>
     <use style="fill:#3b4856;fill-opacity:0.75;stroke:#3b4856;stroke-opacity:0.75;" x="341.937614" xlink:href="#mc005316c0c" y="265.402516"/>
     <use style="fill:#3b4856;fill-opacity:0.75;stroke:#3b4856;stroke-opacity:0.75;" x="200.548207" xlink:href="#mc005316c0c" y="113.890574"/>
     <use style="fill:#3b4856;fill-opacity:0.75;stroke:#3b4856;stroke-opacity:0.75;" x="218.883833" xlink:href="#mc005316c0c" y="146.443046"/>
     <use style="fill:#3b4856;fill-opacity:0.75;stroke:#3b4856;stroke-opacity:0.75;" x="241.607464" xlink:href="#mc005316c0c" y="103.938623"/>
     <use style="fill:#3b4856;fill-opacity:0.75;stroke:#3b4856;stroke-opacity:0.75;" x="80.368165" xlink:href="#mc005316c0c" y="182.241017"/>
     <use style="fill:#3b4856;fill-opacity:0.75;stroke:#3b4856;stroke-opacity:0.75;" x="148.375825" xlink:href="#mc005316c0c" y="168.07515"/>
     <use style="fill:#3b4856;fill-opacity:0.75;stroke:#3b4856;stroke-opacity:0.75;" x="333.020026" xlink:href="#mc005316c0c" y="250.236285"/>
     <use style="fill:#3b4856;fill-opacity:0.75;stroke:#3b4856;stroke-opacity:0.75;" x="232.318434" xlink:href="#mc005316c0c" y="117.935128"/>
     <use style="fill:#3b4856;fill-opacity:0.75;stroke:#3b4856;stroke-opacity:0.75;" x="276.537505" xlink:href="#mc005316c0c" y="104.676509"/>
     <use style="fill:#3b4856;fill-opacity:0.75;stroke:#3b4856;stroke-opacity:0.75;" x="292.792748" xlink:href="#mc005316c0c" y="75.733934"/>
     <use style="fill:#3b4856;fill-opacity:0.75;stroke:#3b4856;stroke-opacity:0.75;" x="326.318395" xlink:href="#mc005316c0c" y="302.645455"/>
     <use style="fill:#3b4856;fill-opacity:0.75;stroke:#3b4856;stroke-opacity:0.75;" x="302.60325" xlink:href="#mc005316c0c" y="68.535239"/>
     <use style="fill:#3b4856;fill-opacity:0.75;stroke:#3b4856;stroke-opacity:0.75;" x="93.429237" xlink:href="#mc005316c0c" y="192.719545"/>
     <use style="fill:#3b4856;fill-opacity:0.75;stroke:#3b4856;stroke-opacity:0.75;" x="371.785599" xlink:href="#mc005316c0c" y="236.79273"/>
     <use style="fill:#3b4856;fill-opacity:0.75;stroke:#3b4856;stroke-opacity:0.75;" x="114.390527" xlink:href="#mc005316c0c" y="188.32556"/>
     <use style="fill:#3b4856;fill-opacity:0.75;stroke:#3b4856;stroke-opacity:0.75;" x="226.518694" xlink:href="#mc005316c0c" y="154.701024"/>
     <use style="fill:#3b4856;fill-opacity:0.75;stroke:#3b4856;stroke-opacity:0.75;" x="115.370346" xlink:href="#mc005316c0c" y="124.238067"/>
     <use style="fill:#3b4856;fill-opacity:0.75;stroke:#3b4856;stroke-opacity:0.75;" x="81.765535" xlink:href="#mc005316c0c" y="169.029286"/>
     <use style="fill:#3b4856;fill-opacity:0.75;stroke:#3b4856;stroke-opacity:0.75;" x="96.709358" xlink:href="#mc005316c0c" y="230.386647"/>
     <use style="fill:#3b4856;fill-opacity:0.75;stroke:#3b4856;stroke-opacity:0.75;" x="116.309556" xlink:href="#mc005316c0c" y="201.93177"/>
     <use style="fill:#3b4856;fill-opacity:0.75;stroke:#3b4856;stroke-opacity:0.75;" x="138.344757" xlink:href="#mc005316c0c" y="214.03469"/>
     <use style="fill:#3b4856;fill-opacity:0.75;stroke:#3b4856;stroke-opacity:0.75;" x="224.097939" xlink:href="#mc005316c0c" y="161.563617"/>
     <use style="fill:#3b4856;fill-opacity:0.75;stroke:#3b4856;stroke-opacity:0.75;" x="276.488399" xlink:href="#mc005316c0c" y="232.791151"/>
     <use style="fill:#3b4856;fill-opacity:0.75;stroke:#3b4856;stroke-opacity:0.75;" x="315.331827" xlink:href="#mc005316c0c" y="250.383842"/>
     <use style="fill:#3b4856;fill-opacity:0.75;stroke:#3b4856;stroke-opacity:0.75;" x="286.245322" xlink:href="#mc005316c0c" y="246.682832"/>
     <use style="fill:#3b4856;fill-opacity:0.75;stroke:#3b4856;stroke-opacity:0.75;" x="273.426848" xlink:href="#mc005316c0c" y="236.93343"/>
     <use style="fill:#3b4856;fill-opacity:0.75;stroke:#3b4856;stroke-opacity:0.75;" x="105.61006" xlink:href="#mc005316c0c" y="176.89035"/>
     <use style="fill:#3b4856;fill-opacity:0.75;stroke:#3b4856;stroke-opacity:0.75;" x="142.614807" xlink:href="#mc005316c0c" y="148.231259"/>
     <use style="fill:#3b4856;fill-opacity:0.75;stroke:#3b4856;stroke-opacity:0.75;" x="257.562887" xlink:href="#mc005316c0c" y="68.941991"/>
     <use style="fill:#3b4856;fill-opacity:0.75;stroke:#3b4856;stroke-opacity:0.75;" x="359.48368" xlink:href="#mc005316c0c" y="210.103024"/>
     <use style="fill:#3b4856;fill-opacity:0.75;stroke:#3b4856;stroke-opacity:0.75;" x="297.800977" xlink:href="#mc005316c0c" y="281.376919"/>
     <use style="fill:#3b4856;fill-opacity:0.75;stroke:#3b4856;stroke-opacity:0.75;" x="301.348102" xlink:href="#mc005316c0c" y="113.686136"/>
     <use style="fill:#3b4856;fill-opacity:0.75;stroke:#3b4856;stroke-opacity:0.75;" x="102.80948" xlink:href="#mc005316c0c" y="169.964541"/>
     <use style="fill:#3b4856;fill-opacity:0.75;stroke:#3b4856;stroke-opacity:0.75;" x="194.875277" xlink:href="#mc005316c0c" y="144.969336"/>
     <use style="fill:#3b4856;fill-opacity:0.75;stroke:#3b4856;stroke-opacity:0.75;" x="249.543514" xlink:href="#mc005316c0c" y="97.083157"/>
     <use style="fill:#3b4856;fill-opacity:0.75;stroke:#3b4856;stroke-opacity:0.75;" x="289.345344" xlink:href="#mc005316c0c" y="260.364631"/>
     <use style="fill:#3b4856;fill-opacity:0.75;stroke:#3b4856;stroke-opacity:0.75;" x="322.773635" xlink:href="#mc005316c0c" y="242.171186"/>
     <use style="fill:#3b4856;fill-opacity:0.75;stroke:#3b4856;stroke-opacity:0.75;" x="93.597622" xlink:href="#mc005316c0c" y="128.830715"/>
     <use style="fill:#3b4856;fill-opacity:0.75;stroke:#3b4856;stroke-opacity:0.75;" x="154.123379" xlink:href="#mc005316c0c" y="199.554611"/>
     <use style="fill:#3b4856;fill-opacity:0.75;stroke:#3b4856;stroke-opacity:0.75;" x="324.264734" xlink:href="#mc005316c0c" y="279.687796"/>
     <use style="fill:#3b4856;fill-opacity:0.75;stroke:#3b4856;stroke-opacity:0.75;" x="320.888384" xlink:href="#mc005316c0c" y="225.458845"/>
     <use style="fill:#3b4856;fill-opacity:0.75;stroke:#3b4856;stroke-opacity:0.75;" x="197.552328" xlink:href="#mc005316c0c" y="55.554545"/>
     <use style="fill:#3b4856;fill-opacity:0.75;stroke:#3b4856;stroke-opacity:0.75;" x="257.916528" xlink:href="#mc005316c0c" y="97.957746"/>
     <use style="fill:#3b4856;fill-opacity:0.75;stroke:#3b4856;stroke-opacity:0.75;" x="236.361808" xlink:href="#mc005316c0c" y="119.966375"/>
     <use style="fill:#3b4856;fill-opacity:0.75;stroke:#3b4856;stroke-opacity:0.75;" x="282.973482" xlink:href="#mc005316c0c" y="276.830728"/>
     <use style="fill:#3b4856;fill-opacity:0.75;stroke:#3b4856;stroke-opacity:0.75;" x="288.689063" xlink:href="#mc005316c0c" y="265.257572"/>
     <use style="fill:#3b4856;fill-opacity:0.75;stroke:#3b4856;stroke-opacity:0.75;" x="87.978368" xlink:href="#mc005316c0c" y="140.317135"/>
     <use style="fill:#3b4856;fill-opacity:0.75;stroke:#3b4856;stroke-opacity:0.75;" x="134.554845" xlink:href="#mc005316c0c" y="175.061336"/>
     <use style="fill:#3b4856;fill-opacity:0.75;stroke:#3b4856;stroke-opacity:0.75;" x="187.743054" xlink:href="#mc005316c0c" y="134.398324"/>
     <use style="fill:#3b4856;fill-opacity:0.75;stroke:#3b4856;stroke-opacity:0.75;" x="290.593566" xlink:href="#mc005316c0c" y="242.983864"/>
     <use style="fill:#3b4856;fill-opacity:0.75;stroke:#3b4856;stroke-opacity:0.75;" x="223.465093" xlink:href="#mc005316c0c" y="106.753713"/>
     <use style="fill:#3b4856;fill-opacity:0.75;stroke:#3b4856;stroke-opacity:0.75;" x="317.97064" xlink:href="#mc005316c0c" y="234.889256"/>
     <use style="fill:#3b4856;fill-opacity:0.75;stroke:#3b4856;stroke-opacity:0.75;" x="101.431095" xlink:href="#mc005316c0c" y="118.408838"/>
     <use style="fill:#3b4856;fill-opacity:0.75;stroke:#3b4856;stroke-opacity:0.75;" x="145.37288" xlink:href="#mc005316c0c" y="187.989792"/>
     <use style="fill:#3b4856;fill-opacity:0.75;stroke:#3b4856;stroke-opacity:0.75;" x="349.446665" xlink:href="#mc005316c0c" y="266.074305"/>
     <use style="fill:#3b4856;fill-opacity:0.75;stroke:#3b4856;stroke-opacity:0.75;" x="311.556276" xlink:href="#mc005316c0c" y="213.069516"/>
     <use style="fill:#3b4856;fill-opacity:0.75;stroke:#3b4856;stroke-opacity:0.75;" x="254.375243" xlink:href="#mc005316c0c" y="113.201482"/>
     <use style="fill:#3b4856;fill-opacity:0.75;stroke:#3b4856;stroke-opacity:0.75;" x="372.29128" xlink:href="#mc005316c0c" y="297.563243"/>
     <use style="fill:#3b4856;fill-opacity:0.75;stroke:#3b4856;stroke-opacity:0.75;" x="270.01055" xlink:href="#mc005316c0c" y="235.084535"/>
     <use style="fill:#3b4856;fill-opacity:0.75;stroke:#3b4856;stroke-opacity:0.75;" x="75.65284" xlink:href="#mc005316c0c" y="163.235206"/>
     <use style="fill:#3b4856;fill-opacity:0.75;stroke:#3b4856;stroke-opacity:0.75;" x="91.526906" xlink:href="#mc005316c0c" y="189.02854"/>
     <use style="fill:#3b4856;fill-opacity:0.75;stroke:#3b4856;stroke-opacity:0.75;" x="122.989263" xlink:href="#mc005316c0c" y="153.313149"/>
     <use style="fill:#3b4856;fill-opacity:0.75;stroke:#3b4856;stroke-opacity:0.75;" x="69.218182" xlink:href="#mc005316c0c" y="158.588288"/>
     <use style="fill:#3b4856;fill-opacity:0.75;stroke:#3b4856;stroke-opacity:0.75;" x="298.13964" xlink:href="#mc005316c0c" y="228.261457"/>
     <use style="fill:#3b4856;fill-opacity:0.75;stroke:#3b4856;stroke-opacity:0.75;" x="277.573636" xlink:href="#mc005316c0c" y="104.873556"/>
     <use style="fill:#3b4856;fill-opacity:0.75;stroke:#3b4856;stroke-opacity:0.75;" x="85.143978" xlink:href="#mc005316c0c" y="212.088329"/>
     <use style="fill:#3b4856;fill-opacity:0.75;stroke:#3b4856;stroke-opacity:0.75;" x="301.111261" xlink:href="#mc005316c0c" y="259.70848"/>
     <use style="fill:#3b4856;fill-opacity:0.75;stroke:#3b4856;stroke-opacity:0.75;" x="283.705049" xlink:href="#mc005316c0c" y="112.235469"/>
     <use style="fill:#3b4856;fill-opacity:0.75;stroke:#3b4856;stroke-opacity:0.75;" x="147.449484" xlink:href="#mc005316c0c" y="161.841817"/>
     <use style="fill:#3b4856;fill-opacity:0.75;stroke:#3b4856;stroke-opacity:0.75;" x="326.505308" xlink:href="#mc005316c0c" y="147.369182"/>
     <use style="fill:#3b4856;fill-opacity:0.75;stroke:#3b4856;stroke-opacity:0.75;" x="170.090975" xlink:href="#mc005316c0c" y="90.530477"/>
     <use style="fill:#3b4856;fill-opacity:0.75;stroke:#3b4856;stroke-opacity:0.75;" x="373.581818" xlink:href="#mc005316c0c" y="221.302985"/>
     <use style="fill:#3b4856;fill-opacity:0.75;stroke:#3b4856;stroke-opacity:0.75;" x="283.28391" xlink:href="#mc005316c0c" y="209.720795"/>
     <use style="fill:#3b4856;fill-opacity:0.75;stroke:#3b4856;stroke-opacity:0.75;" x="289.844946" xlink:href="#mc005316c0c" y="141.449612"/>
     <use style="fill:#3b4856;fill-opacity:0.75;stroke:#3b4856;stroke-opacity:0.75;" x="258.645572" xlink:href="#mc005316c0c" y="118.987778"/>
     <use style="fill:#3b4856;fill-opacity:0.75;stroke:#3b4856;stroke-opacity:0.75;" x="231.081506" xlink:href="#mc005316c0c" y="117.849168"/>
     <use style="fill:#3b4856;fill-opacity:0.75;stroke:#3b4856;stroke-opacity:0.75;" x="106.102645" xlink:href="#mc005316c0c" y="207.509387"/>
     <use style="fill:#3b4856;fill-opacity:0.75;stroke:#3b4856;stroke-opacity:0.75;" x="323.424206" xlink:href="#mc005316c0c" y="290.866626"/>
     <use style="fill:#3b4856;fill-opacity:0.75;stroke:#3b4856;stroke-opacity:0.75;" x="212.259713" xlink:href="#mc005316c0c" y="87.190456"/>
     <use style="fill:#3b4856;fill-opacity:0.75;stroke:#3b4856;stroke-opacity:0.75;" x="255.048503" xlink:href="#mc005316c0c" y="99.998633"/>
     <use style="fill:#3b4856;fill-opacity:0.75;stroke:#3b4856;stroke-opacity:0.75;" x="302.523676" xlink:href="#mc005316c0c" y="239.585836"/>
     <use style="fill:#3b4856;fill-opacity:0.75;stroke:#3b4856;stroke-opacity:0.75;" x="200.019538" xlink:href="#mc005316c0c" y="95.676099"/>
     <use style="fill:#3b4856;fill-opacity:0.75;stroke:#3b4856;stroke-opacity:0.75;" x="273.168244" xlink:href="#mc005316c0c" y="208.816"/>
     <use style="fill:#3b4856;fill-opacity:0.75;stroke:#3b4856;stroke-opacity:0.75;" x="267.28683" xlink:href="#mc005316c0c" y="99.157305"/>
     <use style="fill:#3b4856;fill-opacity:0.75;stroke:#3b4856;stroke-opacity:0.75;" x="251.97715" xlink:href="#mc005316c0c" y="96.605003"/>
     <use style="fill:#3b4856;fill-opacity:0.75;stroke:#3b4856;stroke-opacity:0.75;" x="236.324415" xlink:href="#mc005316c0c" y="139.98836"/>
     <use style="fill:#3b4856;fill-opacity:0.75;stroke:#3b4856;stroke-opacity:0.75;" x="331.131947" xlink:href="#mc005316c0c" y="236.356945"/>
     <use style="fill:#3b4856;fill-opacity:0.75;stroke:#3b4856;stroke-opacity:0.75;" x="240.329143" xlink:href="#mc005316c0c" y="116.305494"/>
     <use style="fill:#3b4856;fill-opacity:0.75;stroke:#3b4856;stroke-opacity:0.75;" x="297.102554" xlink:href="#mc005316c0c" y="211.360211"/>
     <use style="fill:#3b4856;fill-opacity:0.75;stroke:#3b4856;stroke-opacity:0.75;" x="324.059275" xlink:href="#mc005316c0c" y="290.695697"/>
     <use style="fill:#3b4856;fill-opacity:0.75;stroke:#3b4856;stroke-opacity:0.75;" x="153.248465" xlink:href="#mc005316c0c" y="152.767615"/>
     <use style="fill:#3b4856;fill-opacity:0.75;stroke:#3b4856;stroke-opacity:0.75;" x="84.040377" xlink:href="#mc005316c0c" y="152.057644"/>
     <use style="fill:#3b4856;fill-opacity:0.75;stroke:#3b4856;stroke-opacity:0.75;" x="74.905251" xlink:href="#mc005316c0c" y="182.881793"/>
     <use style="fill:#3b4856;fill-opacity:0.75;stroke:#3b4856;stroke-opacity:0.75;" x="156.114544" xlink:href="#mc005316c0c" y="161.889948"/>
     <use style="fill:#3b4856;fill-opacity:0.75;stroke:#3b4856;stroke-opacity:0.75;" x="263.044786" xlink:href="#mc005316c0c" y="131.183783"/>
     <use style="fill:#3b4856;fill-opacity:0.75;stroke:#3b4856;stroke-opacity:0.75;" x="280.927122" xlink:href="#mc005316c0c" y="128.165736"/>
     <use style="fill:#3b4856;fill-opacity:0.75;stroke:#3b4856;stroke-opacity:0.75;" x="137.861508" xlink:href="#mc005316c0c" y="213.632977"/>
     <use style="fill:#3b4856;fill-opacity:0.75;stroke:#3b4856;stroke-opacity:0.75;" x="77.839493" xlink:href="#mc005316c0c" y="147.668831"/>
    </g>
   </g>
   <g id="PathCollection_2">
    <defs>
     <path d="M 0 -7.071068 
L -1.587554 -2.18508 
L -6.724985 -2.18508 
L -2.568716 0.834626 
L -4.156269 5.720614 
L -0 2.700907 
L 4.156269 5.720614 
L 2.568716 0.834626 
L 6.724985 -2.18508 
L 1.587554 -2.18508 
z
" id="C0_0_7d9aaf438a"/>
    </defs>
    <g clip-path="url(#p65a1b40d19)">
     <use style="fill:#ffc100;stroke:#000000;" x="282.291082" xlink:href="#C0_0_7d9aaf438a" y="271.724138"/>
    </g>
    <g clip-path="url(#p65a1b40d19)">
     <use style="fill:#348fea;stroke:#000000;" x="248.293715" xlink:href="#C0_0_7d9aaf438a" y="221.699762"/>
    </g>
    <g clip-path="url(#p65a1b40d19)">
     <use style="fill:#97c804;stroke:#000000;" x="311.128964" xlink:href="#C0_0_7d9aaf438a" y="235.327347"/>
    </g>
   </g>
   <g id="matplotlib.axis_1">
    <g id="xtick_1">
     <g id="line2d_1">
      <defs>
       <path d="M 0 0 
L 0 3.5 
" id="m44d2fd20f4" style="stroke:#000000;stroke-width:0.8;"/>
      </defs>
      <g>
       <use style="stroke:#000000;stroke-width:0.8;" x="92.010682" xlink:href="#m44d2fd20f4" y="315"/>
      </g>
     </g>
     <g id="text_1">
      <!-- −2 -->
      <defs>
       <path d="M 10.59375 35.5 
L 73.1875 35.5 
L 73.1875 27.203125 
L 10.59375 27.203125 
z
" id="DejaVuSans-8722"/>
       <path d="M 19.1875 8.296875 
L 53.609375 8.296875 
L 53.609375 0 
L 7.328125 0 
L 7.328125 8.296875 
Q 12.9375 14.109375 22.625 23.890625 
Q 32.328125 33.6875 34.8125 36.53125 
Q 39.546875 41.84375 41.421875 45.53125 
Q 43.3125 49.21875 43.3125 52.78125 
Q 43.3125 58.59375 39.234375 62.25 
Q 35.15625 65.921875 28.609375 65.921875 
Q 23.96875 65.921875 18.8125 64.3125 
Q 13.671875 62.703125 7.8125 59.421875 
L 7.8125 69.390625 
Q 13.765625 71.78125 18.9375 73 
Q 24.125 74.21875 28.421875 74.21875 
Q 39.75 74.21875 46.484375 68.546875 
Q 53.21875 62.890625 53.21875 53.421875 
Q 53.21875 48.921875 51.53125 44.890625 
Q 49.859375 40.875 45.40625 35.40625 
Q 44.1875 33.984375 37.640625 27.21875 
Q 31.109375 20.453125 19.1875 8.296875 
z
" id="DejaVuSans-50"/>
      </defs>
      <g transform="translate(84.639589 329.598437)scale(0.1 -0.1)">
       <use xlink:href="#DejaVuSans-8722"/>
       <use x="83.789062" xlink:href="#DejaVuSans-50"/>
      </g>
     </g>
    </g>
    <g id="xtick_2">
     <g id="line2d_2">
      <g>
       <use style="stroke:#000000;stroke-width:0.8;" x="146.065082" xlink:href="#m44d2fd20f4" y="315"/>
      </g>
     </g>
     <g id="text_2">
      <!-- −1 -->
      <defs>
       <path d="M 12.40625 8.296875 
L 28.515625 8.296875 
L 28.515625 63.921875 
L 10.984375 60.40625 
L 10.984375 69.390625 
L 28.421875 72.90625 
L 38.28125 72.90625 
L 38.28125 8.296875 
L 54.390625 8.296875 
L 54.390625 0 
L 12.40625 0 
z
" id="DejaVuSans-49"/>
      </defs>
      <g transform="translate(138.693988 329.598437)scale(0.1 -0.1)">
       <use xlink:href="#DejaVuSans-8722"/>
       <use x="83.789062" xlink:href="#DejaVuSans-49"/>
      </g>
     </g>
    </g>
    <g id="xtick_3">
     <g id="line2d_3">
      <g>
       <use style="stroke:#000000;stroke-width:0.8;" x="200.119481" xlink:href="#m44d2fd20f4" y="315"/>
      </g>
     </g>
     <g id="text_3">
      <!-- 0 -->
      <defs>
       <path d="M 31.78125 66.40625 
Q 24.171875 66.40625 20.328125 58.90625 
Q 16.5 51.421875 16.5 36.375 
Q 16.5 21.390625 20.328125 13.890625 
Q 24.171875 6.390625 31.78125 6.390625 
Q 39.453125 6.390625 43.28125 13.890625 
Q 47.125 21.390625 47.125 36.375 
Q 47.125 51.421875 43.28125 58.90625 
Q 39.453125 66.40625 31.78125 66.40625 
z
M 31.78125 74.21875 
Q 44.046875 74.21875 50.515625 64.515625 
Q 56.984375 54.828125 56.984375 36.375 
Q 56.984375 17.96875 50.515625 8.265625 
Q 44.046875 -1.421875 31.78125 -1.421875 
Q 19.53125 -1.421875 13.0625 8.265625 
Q 6.59375 17.96875 6.59375 36.375 
Q 6.59375 54.828125 13.0625 64.515625 
Q 19.53125 74.21875 31.78125 74.21875 
z
" id="DejaVuSans-48"/>
      </defs>
      <g transform="translate(196.938231 329.598437)scale(0.1 -0.1)">
       <use xlink:href="#DejaVuSans-48"/>
      </g>
     </g>
    </g>
    <g id="xtick_4">
     <g id="line2d_4">
      <g>
       <use style="stroke:#000000;stroke-width:0.8;" x="254.17388" xlink:href="#m44d2fd20f4" y="315"/>
      </g>
     </g>
     <g id="text_4">
      <!-- 1 -->
      <g transform="translate(250.99263 329.598437)scale(0.1 -0.1)">
       <use xlink:href="#DejaVuSans-49"/>
      </g>
     </g>
    </g>
    <g id="xtick_5">
     <g id="line2d_5">
      <g>
       <use style="stroke:#000000;stroke-width:0.8;" x="308.22828" xlink:href="#m44d2fd20f4" y="315"/>
      </g>
     </g>
     <g id="text_5">
      <!-- 2 -->
      <g transform="translate(305.04703 329.598437)scale(0.1 -0.1)">
       <use xlink:href="#DejaVuSans-50"/>
      </g>
     </g>
    </g>
    <g id="xtick_6">
     <g id="line2d_6">
      <g>
       <use style="stroke:#000000;stroke-width:0.8;" x="362.282679" xlink:href="#m44d2fd20f4" y="315"/>
      </g>
     </g>
     <g id="text_6">
      <!-- 3 -->
      <defs>
       <path d="M 40.578125 39.3125 
Q 47.65625 37.796875 51.625 33 
Q 55.609375 28.21875 55.609375 21.1875 
Q 55.609375 10.40625 48.1875 4.484375 
Q 40.765625 -1.421875 27.09375 -1.421875 
Q 22.515625 -1.421875 17.65625 -0.515625 
Q 12.796875 0.390625 7.625 2.203125 
L 7.625 11.71875 
Q 11.71875 9.328125 16.59375 8.109375 
Q 21.484375 6.890625 26.8125 6.890625 
Q 36.078125 6.890625 40.9375 10.546875 
Q 45.796875 14.203125 45.796875 21.1875 
Q 45.796875 27.640625 41.28125 31.265625 
Q 36.765625 34.90625 28.71875 34.90625 
L 20.21875 34.90625 
L 20.21875 43.015625 
L 29.109375 43.015625 
Q 36.375 43.015625 40.234375 45.921875 
Q 44.09375 48.828125 44.09375 54.296875 
Q 44.09375 59.90625 40.109375 62.90625 
Q 36.140625 65.921875 28.71875 65.921875 
Q 24.65625 65.921875 20.015625 65.03125 
Q 15.375 64.15625 9.8125 62.3125 
L 9.8125 71.09375 
Q 15.4375 72.65625 20.34375 73.4375 
Q 25.25 74.21875 29.59375 74.21875 
Q 40.828125 74.21875 47.359375 69.109375 
Q 53.90625 64.015625 53.90625 55.328125 
Q 53.90625 49.265625 50.4375 45.09375 
Q 46.96875 40.921875 40.578125 39.3125 
z
" id="DejaVuSans-51"/>
      </defs>
      <g transform="translate(359.101429 329.598437)scale(0.1 -0.1)">
       <use xlink:href="#DejaVuSans-51"/>
      </g>
     </g>
    </g>
   </g>
   <g id="matplotlib.axis_2">
    <g id="ytick_1">
     <g id="line2d_7">
      <defs>
       <path d="M 0 0 
L -3.5 0 
" id="m2b05438ebf" style="stroke:#000000;stroke-width:0.8;"/>
      </defs>
      <g>
       <use style="stroke:#000000;stroke-width:0.8;" x="54" xlink:href="#m2b05438ebf" y="301.563203"/>
      </g>
     </g>
     <g id="text_7">
      <!-- 0 -->
      <g transform="translate(40.6375 305.362422)scale(0.1 -0.1)">
       <use xlink:href="#DejaVuSans-48"/>
      </g>
     </g>
    </g>
    <g id="ytick_2">
     <g id="line2d_8">
      <g>
       <use style="stroke:#000000;stroke-width:0.8;" x="54" xlink:href="#m2b05438ebf" y="256.62398"/>
      </g>
     </g>
     <g id="text_8">
      <!-- 1 -->
      <g transform="translate(40.6375 260.423199)scale(0.1 -0.1)">
       <use xlink:href="#DejaVuSans-49"/>
      </g>
     </g>
    </g>
    <g id="ytick_3">
     <g id="line2d_9">
      <g>
       <use style="stroke:#000000;stroke-width:0.8;" x="54" xlink:href="#m2b05438ebf" y="211.684757"/>
      </g>
     </g>
     <g id="text_9">
      <!-- 2 -->
      <g transform="translate(40.6375 215.483976)scale(0.1 -0.1)">
       <use xlink:href="#DejaVuSans-50"/>
      </g>
     </g>
    </g>
    <g id="ytick_4">
     <g id="line2d_10">
      <g>
       <use style="stroke:#000000;stroke-width:0.8;" x="54" xlink:href="#m2b05438ebf" y="166.745534"/>
      </g>
     </g>
     <g id="text_10">
      <!-- 3 -->
      <g transform="translate(40.6375 170.544752)scale(0.1 -0.1)">
       <use xlink:href="#DejaVuSans-51"/>
      </g>
     </g>
    </g>
    <g id="ytick_5">
     <g id="line2d_11">
      <g>
       <use style="stroke:#000000;stroke-width:0.8;" x="54" xlink:href="#m2b05438ebf" y="121.806311"/>
      </g>
     </g>
     <g id="text_11">
      <!-- 4 -->
      <defs>
       <path d="M 37.796875 64.3125 
L 12.890625 25.390625 
L 37.796875 25.390625 
z
M 35.203125 72.90625 
L 47.609375 72.90625 
L 47.609375 25.390625 
L 58.015625 25.390625 
L 58.015625 17.1875 
L 47.609375 17.1875 
L 47.609375 0 
L 37.796875 0 
L 37.796875 17.1875 
L 4.890625 17.1875 
L 4.890625 26.703125 
z
" id="DejaVuSans-52"/>
      </defs>
      <g transform="translate(40.6375 125.605529)scale(0.1 -0.1)">
       <use xlink:href="#DejaVuSans-52"/>
      </g>
     </g>
    </g>
    <g id="ytick_6">
     <g id="line2d_12">
      <g>
       <use style="stroke:#000000;stroke-width:0.8;" x="54" xlink:href="#m2b05438ebf" y="76.867087"/>
      </g>
     </g>
     <g id="text_12">
      <!-- 5 -->
      <defs>
       <path d="M 10.796875 72.90625 
L 49.515625 72.90625 
L 49.515625 64.59375 
L 19.828125 64.59375 
L 19.828125 46.734375 
Q 21.96875 47.46875 24.109375 47.828125 
Q 26.265625 48.1875 28.421875 48.1875 
Q 40.625 48.1875 47.75 41.5 
Q 54.890625 34.8125 54.890625 23.390625 
Q 54.890625 11.625 47.5625 5.09375 
Q 40.234375 -1.421875 26.90625 -1.421875 
Q 22.3125 -1.421875 17.546875 -0.640625 
Q 12.796875 0.140625 7.71875 1.703125 
L 7.71875 11.625 
Q 12.109375 9.234375 16.796875 8.0625 
Q 21.484375 6.890625 26.703125 6.890625 
Q 35.15625 6.890625 40.078125 11.328125 
Q 45.015625 15.765625 45.015625 23.390625 
Q 45.015625 31 40.078125 35.4375 
Q 35.15625 39.890625 26.703125 39.890625 
Q 22.75 39.890625 18.8125 39.015625 
Q 14.890625 38.140625 10.796875 36.28125 
z
" id="DejaVuSans-53"/>
      </defs>
      <g transform="translate(40.6375 80.666306)scale(0.1 -0.1)">
       <use xlink:href="#DejaVuSans-53"/>
      </g>
     </g>
    </g>
   </g>
   <g id="patch_3">
    <path d="M 54 315 
L 54 43.2 
" style="fill:none;stroke:#000000;stroke-linecap:square;stroke-linejoin:miter;stroke-width:0.8;"/>
   </g>
   <g id="patch_4">
    <path d="M 388.8 315 
L 388.8 43.2 
" style="fill:none;stroke:#000000;stroke-linecap:square;stroke-linejoin:miter;stroke-width:0.8;"/>
   </g>
   <g id="patch_5">
    <path d="M 54 315 
L 388.8 315 
" style="fill:none;stroke:#000000;stroke-linecap:square;stroke-linejoin:miter;stroke-width:0.8;"/>
   </g>
   <g id="patch_6">
    <path d="M 54 43.2 
L 388.8 43.2 
" style="fill:none;stroke:#000000;stroke-linecap:square;stroke-linejoin:miter;stroke-width:0.8;"/>
   </g>
   <g id="text_13">
    <!-- Initialize with random centers -->
    <defs>
     <path d="M 9.8125 72.90625 
L 19.671875 72.90625 
L 19.671875 0 
L 9.8125 0 
z
" id="DejaVuSans-73"/>
     <path d="M 54.890625 33.015625 
L 54.890625 0 
L 45.90625 0 
L 45.90625 32.71875 
Q 45.90625 40.484375 42.875 44.328125 
Q 39.84375 48.1875 33.796875 48.1875 
Q 26.515625 48.1875 22.3125 43.546875 
Q 18.109375 38.921875 18.109375 30.90625 
L 18.109375 0 
L 9.078125 0 
L 9.078125 54.6875 
L 18.109375 54.6875 
L 18.109375 46.1875 
Q 21.34375 51.125 25.703125 53.5625 
Q 30.078125 56 35.796875 56 
Q 45.21875 56 50.046875 50.171875 
Q 54.890625 44.34375 54.890625 33.015625 
z
" id="DejaVuSans-110"/>
     <path d="M 9.421875 54.6875 
L 18.40625 54.6875 
L 18.40625 0 
L 9.421875 0 
z
M 9.421875 75.984375 
L 18.40625 75.984375 
L 18.40625 64.59375 
L 9.421875 64.59375 
z
" id="DejaVuSans-105"/>
     <path d="M 18.3125 70.21875 
L 18.3125 54.6875 
L 36.8125 54.6875 
L 36.8125 47.703125 
L 18.3125 47.703125 
L 18.3125 18.015625 
Q 18.3125 11.328125 20.140625 9.421875 
Q 21.96875 7.515625 27.59375 7.515625 
L 36.8125 7.515625 
L 36.8125 0 
L 27.59375 0 
Q 17.1875 0 13.234375 3.875 
Q 9.28125 7.765625 9.28125 18.015625 
L 9.28125 47.703125 
L 2.6875 47.703125 
L 2.6875 54.6875 
L 9.28125 54.6875 
L 9.28125 70.21875 
z
" id="DejaVuSans-116"/>
     <path d="M 34.28125 27.484375 
Q 23.390625 27.484375 19.1875 25 
Q 14.984375 22.515625 14.984375 16.5 
Q 14.984375 11.71875 18.140625 8.90625 
Q 21.296875 6.109375 26.703125 6.109375 
Q 34.1875 6.109375 38.703125 11.40625 
Q 43.21875 16.703125 43.21875 25.484375 
L 43.21875 27.484375 
z
M 52.203125 31.203125 
L 52.203125 0 
L 43.21875 0 
L 43.21875 8.296875 
Q 40.140625 3.328125 35.546875 0.953125 
Q 30.953125 -1.421875 24.3125 -1.421875 
Q 15.921875 -1.421875 10.953125 3.296875 
Q 6 8.015625 6 15.921875 
Q 6 25.140625 12.171875 29.828125 
Q 18.359375 34.515625 30.609375 34.515625 
L 43.21875 34.515625 
L 43.21875 35.40625 
Q 43.21875 41.609375 39.140625 45 
Q 35.0625 48.390625 27.6875 48.390625 
Q 23 48.390625 18.546875 47.265625 
Q 14.109375 46.140625 10.015625 43.890625 
L 10.015625 52.203125 
Q 14.9375 54.109375 19.578125 55.046875 
Q 24.21875 56 28.609375 56 
Q 40.484375 56 46.34375 49.84375 
Q 52.203125 43.703125 52.203125 31.203125 
z
" id="DejaVuSans-97"/>
     <path d="M 9.421875 75.984375 
L 18.40625 75.984375 
L 18.40625 0 
L 9.421875 0 
z
" id="DejaVuSans-108"/>
     <path d="M 5.515625 54.6875 
L 48.1875 54.6875 
L 48.1875 46.484375 
L 14.40625 7.171875 
L 48.1875 7.171875 
L 48.1875 0 
L 4.296875 0 
L 4.296875 8.203125 
L 38.09375 47.515625 
L 5.515625 47.515625 
z
" id="DejaVuSans-122"/>
     <path d="M 56.203125 29.59375 
L 56.203125 25.203125 
L 14.890625 25.203125 
Q 15.484375 15.921875 20.484375 11.0625 
Q 25.484375 6.203125 34.421875 6.203125 
Q 39.59375 6.203125 44.453125 7.46875 
Q 49.3125 8.734375 54.109375 11.28125 
L 54.109375 2.78125 
Q 49.265625 0.734375 44.1875 -0.34375 
Q 39.109375 -1.421875 33.890625 -1.421875 
Q 20.796875 -1.421875 13.15625 6.1875 
Q 5.515625 13.8125 5.515625 26.8125 
Q 5.515625 40.234375 12.765625 48.109375 
Q 20.015625 56 32.328125 56 
Q 43.359375 56 49.78125 48.890625 
Q 56.203125 41.796875 56.203125 29.59375 
z
M 47.21875 32.234375 
Q 47.125 39.59375 43.09375 43.984375 
Q 39.0625 48.390625 32.421875 48.390625 
Q 24.90625 48.390625 20.390625 44.140625 
Q 15.875 39.890625 15.1875 32.171875 
z
" id="DejaVuSans-101"/>
     <path id="DejaVuSans-32"/>
     <path d="M 4.203125 54.6875 
L 13.1875 54.6875 
L 24.421875 12.015625 
L 35.59375 54.6875 
L 46.1875 54.6875 
L 57.421875 12.015625 
L 68.609375 54.6875 
L 77.59375 54.6875 
L 63.28125 0 
L 52.6875 0 
L 40.921875 44.828125 
L 29.109375 0 
L 18.5 0 
z
" id="DejaVuSans-119"/>
     <path d="M 54.890625 33.015625 
L 54.890625 0 
L 45.90625 0 
L 45.90625 32.71875 
Q 45.90625 40.484375 42.875 44.328125 
Q 39.84375 48.1875 33.796875 48.1875 
Q 26.515625 48.1875 22.3125 43.546875 
Q 18.109375 38.921875 18.109375 30.90625 
L 18.109375 0 
L 9.078125 0 
L 9.078125 75.984375 
L 18.109375 75.984375 
L 18.109375 46.1875 
Q 21.34375 51.125 25.703125 53.5625 
Q 30.078125 56 35.796875 56 
Q 45.21875 56 50.046875 50.171875 
Q 54.890625 44.34375 54.890625 33.015625 
z
" id="DejaVuSans-104"/>
     <path d="M 41.109375 46.296875 
Q 39.59375 47.171875 37.8125 47.578125 
Q 36.03125 48 33.890625 48 
Q 26.265625 48 22.1875 43.046875 
Q 18.109375 38.09375 18.109375 28.8125 
L 18.109375 0 
L 9.078125 0 
L 9.078125 54.6875 
L 18.109375 54.6875 
L 18.109375 46.1875 
Q 20.953125 51.171875 25.484375 53.578125 
Q 30.03125 56 36.53125 56 
Q 37.453125 56 38.578125 55.875 
Q 39.703125 55.765625 41.0625 55.515625 
z
" id="DejaVuSans-114"/>
     <path d="M 45.40625 46.390625 
L 45.40625 75.984375 
L 54.390625 75.984375 
L 54.390625 0 
L 45.40625 0 
L 45.40625 8.203125 
Q 42.578125 3.328125 38.25 0.953125 
Q 33.9375 -1.421875 27.875 -1.421875 
Q 17.96875 -1.421875 11.734375 6.484375 
Q 5.515625 14.40625 5.515625 27.296875 
Q 5.515625 40.1875 11.734375 48.09375 
Q 17.96875 56 27.875 56 
Q 33.9375 56 38.25 53.625 
Q 42.578125 51.265625 45.40625 46.390625 
z
M 14.796875 27.296875 
Q 14.796875 17.390625 18.875 11.75 
Q 22.953125 6.109375 30.078125 6.109375 
Q 37.203125 6.109375 41.296875 11.75 
Q 45.40625 17.390625 45.40625 27.296875 
Q 45.40625 37.203125 41.296875 42.84375 
Q 37.203125 48.484375 30.078125 48.484375 
Q 22.953125 48.484375 18.875 42.84375 
Q 14.796875 37.203125 14.796875 27.296875 
z
" id="DejaVuSans-100"/>
     <path d="M 30.609375 48.390625 
Q 23.390625 48.390625 19.1875 42.75 
Q 14.984375 37.109375 14.984375 27.296875 
Q 14.984375 17.484375 19.15625 11.84375 
Q 23.34375 6.203125 30.609375 6.203125 
Q 37.796875 6.203125 41.984375 11.859375 
Q 46.1875 17.53125 46.1875 27.296875 
Q 46.1875 37.015625 41.984375 42.703125 
Q 37.796875 48.390625 30.609375 48.390625 
z
M 30.609375 56 
Q 42.328125 56 49.015625 48.375 
Q 55.71875 40.765625 55.71875 27.296875 
Q 55.71875 13.875 49.015625 6.21875 
Q 42.328125 -1.421875 30.609375 -1.421875 
Q 18.84375 -1.421875 12.171875 6.21875 
Q 5.515625 13.875 5.515625 27.296875 
Q 5.515625 40.765625 12.171875 48.375 
Q 18.84375 56 30.609375 56 
z
" id="DejaVuSans-111"/>
     <path d="M 52 44.1875 
Q 55.375 50.25 60.0625 53.125 
Q 64.75 56 71.09375 56 
Q 79.640625 56 84.28125 50.015625 
Q 88.921875 44.046875 88.921875 33.015625 
L 88.921875 0 
L 79.890625 0 
L 79.890625 32.71875 
Q 79.890625 40.578125 77.09375 44.375 
Q 74.3125 48.1875 68.609375 48.1875 
Q 61.625 48.1875 57.5625 43.546875 
Q 53.515625 38.921875 53.515625 30.90625 
L 53.515625 0 
L 44.484375 0 
L 44.484375 32.71875 
Q 44.484375 40.625 41.703125 44.40625 
Q 38.921875 48.1875 33.109375 48.1875 
Q 26.21875 48.1875 22.15625 43.53125 
Q 18.109375 38.875 18.109375 30.90625 
L 18.109375 0 
L 9.078125 0 
L 9.078125 54.6875 
L 18.109375 54.6875 
L 18.109375 46.1875 
Q 21.1875 51.21875 25.484375 53.609375 
Q 29.78125 56 35.6875 56 
Q 41.65625 56 45.828125 52.96875 
Q 50 49.953125 52 44.1875 
z
" id="DejaVuSans-109"/>
     <path d="M 48.78125 52.59375 
L 48.78125 44.1875 
Q 44.96875 46.296875 41.140625 47.34375 
Q 37.3125 48.390625 33.40625 48.390625 
Q 24.65625 48.390625 19.8125 42.84375 
Q 14.984375 37.3125 14.984375 27.296875 
Q 14.984375 17.28125 19.8125 11.734375 
Q 24.65625 6.203125 33.40625 6.203125 
Q 37.3125 6.203125 41.140625 7.25 
Q 44.96875 8.296875 48.78125 10.40625 
L 48.78125 2.09375 
Q 45.015625 0.34375 40.984375 -0.53125 
Q 36.96875 -1.421875 32.421875 -1.421875 
Q 20.0625 -1.421875 12.78125 6.34375 
Q 5.515625 14.109375 5.515625 27.296875 
Q 5.515625 40.671875 12.859375 48.328125 
Q 20.21875 56 33.015625 56 
Q 37.15625 56 41.109375 55.140625 
Q 45.0625 54.296875 48.78125 52.59375 
z
" id="DejaVuSans-99"/>
     <path d="M 44.28125 53.078125 
L 44.28125 44.578125 
Q 40.484375 46.53125 36.375 47.5 
Q 32.28125 48.484375 27.875 48.484375 
Q 21.1875 48.484375 17.84375 46.4375 
Q 14.5 44.390625 14.5 40.28125 
Q 14.5 37.15625 16.890625 35.375 
Q 19.28125 33.59375 26.515625 31.984375 
L 29.59375 31.296875 
Q 39.15625 29.25 43.1875 25.515625 
Q 47.21875 21.78125 47.21875 15.09375 
Q 47.21875 7.46875 41.1875 3.015625 
Q 35.15625 -1.421875 24.609375 -1.421875 
Q 20.21875 -1.421875 15.453125 -0.5625 
Q 10.6875 0.296875 5.421875 2 
L 5.421875 11.28125 
Q 10.40625 8.6875 15.234375 7.390625 
Q 20.0625 6.109375 24.8125 6.109375 
Q 31.15625 6.109375 34.5625 8.28125 
Q 37.984375 10.453125 37.984375 14.40625 
Q 37.984375 18.0625 35.515625 20.015625 
Q 33.0625 21.96875 24.703125 23.78125 
L 21.578125 24.515625 
Q 13.234375 26.265625 9.515625 29.90625 
Q 5.8125 33.546875 5.8125 39.890625 
Q 5.8125 47.609375 11.28125 51.796875 
Q 16.75 56 26.8125 56 
Q 31.78125 56 36.171875 55.265625 
Q 40.578125 54.546875 44.28125 53.078125 
z
" id="DejaVuSans-115"/>
    </defs>
    <g transform="translate(109.825781 37.2)scale(0.15 -0.15)">
     <use xlink:href="#DejaVuSans-73"/>
     <use x="29.492188" xlink:href="#DejaVuSans-110"/>
     <use x="92.871094" xlink:href="#DejaVuSans-105"/>
     <use x="120.654297" xlink:href="#DejaVuSans-116"/>
     <use x="159.863281" xlink:href="#DejaVuSans-105"/>
     <use x="187.646484" xlink:href="#DejaVuSans-97"/>
     <use x="248.925781" xlink:href="#DejaVuSans-108"/>
     <use x="276.708984" xlink:href="#DejaVuSans-105"/>
     <use x="304.492188" xlink:href="#DejaVuSans-122"/>
     <use x="356.982422" xlink:href="#DejaVuSans-101"/>
     <use x="418.505859" xlink:href="#DejaVuSans-32"/>
     <use x="450.292969" xlink:href="#DejaVuSans-119"/>
     <use x="532.080078" xlink:href="#DejaVuSans-105"/>
     <use x="559.863281" xlink:href="#DejaVuSans-116"/>
     <use x="599.072266" xlink:href="#DejaVuSans-104"/>
     <use x="662.451172" xlink:href="#DejaVuSans-32"/>
     <use x="694.238281" xlink:href="#DejaVuSans-114"/>
     <use x="735.351562" xlink:href="#DejaVuSans-97"/>
     <use x="796.630859" xlink:href="#DejaVuSans-110"/>
     <use x="860.009766" xlink:href="#DejaVuSans-100"/>
     <use x="923.486328" xlink:href="#DejaVuSans-111"/>
     <use x="984.667969" xlink:href="#DejaVuSans-109"/>
     <use x="1082.080078" xlink:href="#DejaVuSans-32"/>
     <use x="1113.867188" xlink:href="#DejaVuSans-99"/>
     <use x="1168.847656" xlink:href="#DejaVuSans-101"/>
     <use x="1230.371094" xlink:href="#DejaVuSans-110"/>
     <use x="1293.75" xlink:href="#DejaVuSans-116"/>
     <use x="1332.958984" xlink:href="#DejaVuSans-101"/>
     <use x="1394.482422" xlink:href="#DejaVuSans-114"/>
     <use x="1435.595703" xlink:href="#DejaVuSans-115"/>
    </g>
   </g>
  </g>
 </g>
 <defs>
  <clipPath id="p65a1b40d19">
   <rect height="271.8" width="334.8" x="54" y="43.2"/>
  </clipPath>
 </defs>
</svg>
